ID,Client_Name,Parent_or_Branch,Parent_name,Category,City,Province,Fund_Consultant,EB_Assistant,Healthcare_Assistant,Medical_Insurance_Assistant,Referring_Broker,Financial_Advisor,Broker_Appointment_Received,First_Contact_Email,Third_Contact_Email,Contact_Email,Contact_Number,Physical_Address,Approval_Status,Risk_Fund_Provider,Risk_Renewal_Date,Retirement_Fund_Provider,Retirement_Fund_Renewal_Date,Medical_aid_provider,Medical_Insurance_Provider,Signed SLA on file - DATE,Signed Investment Policy Statement - DATE,FC2 ???,FC4
91,Fogartys,Parent,Fogartys ,B,Port Elizabeth,Eastern Cape,Liesl Nienaber,N/A,N/A,Priscilla Abrahams,Liesl Nienaber,Liesl Nienaber,N/A,resafogarty@global.co.za,N/A,N/A,(041) 368-1425,"Shop 20
Walmer Park
Port Elizabeth",N/A,N/A,N/A,N/A,N/A,N/A,Momentum Health4Me,,Outstanding,,
92,Fununani Trust,Parent,Fununani Trust,C,Pretoria,Gauteng,Natasha le Roux,Shaneley Alberts,N/A,N/A,Stian de Witt,Rayno v V / Stian de Witt,01/06/2016,info@funanani.com,N/A,info@funanani.com,(012) 845 8367,"72 Brummeria Road
Brummeria
Pretoria",Approved,Momentum,July,Momentum,July,N/A,N/A,Yes,November 2021,,25 Jan 2022
92,Funanani Trust Mamelodi,Branch,Fununani Trust,C,Pretoria,Gauteng,Natasha le Roux,Shaneley Alberts,N/A,N/A,Stian de Witt,Rayno v V / Stian de Witt,01/07/2016,info@funanani.com,N/A,info@funanani.com,(012) 845 8367,"72 Brummeria Road
Brummeria
Pretoria",Approved,Momentum,July ,Momentum,July,N/A,N/A,Yes,November 2021,,25 Jan 2022
92,Funanani Trust Soshanguve,Branch,Fununani Trust,C,Pretoria,Gauteng,Natasha le Roux,Shaneley Alberts,N/A,N/A,Stian de Witt,Rayno v V / Stian de Witt,01/08/2016,info@funanani.com,N/A,info@funanani.com,(012) 845 8367,"72 Brummeria Road
Brummeria
Pretoria",Approved,Momentum,July,Momentum,July,N/A,N/A,,,,
93,Furniture Bargaining Council,Parent,Furniture Bargaining Council,C,Cape Town,Western Cape,Douw Smit,N/A,Benice Fourie,N/A,Madeleen van den Berg,Douw Smit,N/A,secretary@furniture.org.za,N/A,N/A,,,N/A,N/A,N/A,N/A,N/A,Discovery Health,N/A,,,,
94,Fourways High School,Parent,Fourways High School,B,Johannesburg,Gauteng,Natasha le Roux,Tanya van Zyl,N/A,N/A,Madeleen van den Berg,Madeleen,01/04/2021,bornmanl@4ways.co.za,Diane McGuckin,diane@humaninc.co.za,(011) 465 1104,,Unapproved,Momentum,July,Momentum,July,N/A,N/A,,,,
95,Gameoflife,,,,,,,,,,,,,toby@gameoflife.co.za,,,,,,,,,,,,,,,
96,Geresponse,,,,,,,,,,,,,gerhard@geresponse.co.za,,,,,,,,,,,,,,,
97,Global Choices,Parent,Global Choices,A,Johannesburg,Gauteng,George Herman,Rene Koekemoer,N/A,Lizaan Jacobs,Madeleen van den Berg,Johan vd M,01/10/2017,yumna@globalchoices.co.za,michelle@globalchoices.co.za,N/A,(086) 030-0303,"Block G Metropolitan Office Park
82 Wessels Road
Rivonia",Unapproved,Discovery,October,N/A,N/A,N/A,Momentum Health4Me,,No,,
98,Goal Group,Parent,Cocks & Hens,A,Cape Town,Western Cape,Douw Smit,Tanya van Zyl,N/A,N/A,Johann Minnie,Douw Smit,01/10/2018,margo@goalgroup.co.za ,N/A,andre@goalgroup.co.za,(021) 202 9535,,Approved,Momentum,July,Momentum,July,N/A,N/A,Yes,,,
98,Goal Group,Branch,Curoprop,A,Cape Town,Western Cape,Douw Smit,Tanya van Zyl,N/A,N/A,Johann Minnie,Douw Smit,01/10/2018,margo@goalgroup.co.za ,N/A,andre@goalgroup.co.za,(021) 202 9535,,Approved,Momentum,July,Momentum,July,N/A,N/A,Yes,Chat to Mads,,
98,Goal Group,Branch,Distribution Centre,A,Cape Town,Western Cape,Douw Smit,Tanya van Zyl,N/A,N/A,Johann Minnie,Douw Smit,01/10/2018,margo@goalgroup.co.za ,N/A,andre@goalgroup.co.za,(021) 202 9535,,Approved,Momentum,July,Momentum,July,N/A,N/A,Yes,Chat to Mads,,
98,Goal Group,Branch,Food Discounters Mfuleni,A,Cape Town,Western Cape,Douw Smit,Tanya van Zyl,N/A,N/A,Johann Minnie,Douw Smit,01/10/2018,margo@goalgroup.co.za ,N/A,andre@goalgroup.co.za,(021) 202 9535,,Approved,Momentum,July,Momentum,July,N/A,N/A,Yes,Chat to Mads,,
98,Goal Group,Branch,Holdings,A,Cape Town,Western Cape,Douw Smit,Tanya van Zyl,N/A,N/A,Johann Minnie,Douw Smit,01/10/2018,margo@goalgroup.co.za ,N/A,andre@goalgroup.co.za,(021) 202 9535,,Approved,Momentum,July,Momentum,July,N/A,N/A,Yes,Chat to Mads,,
98,Goal Group,Branch,Liquors,A,Cape Town,Western Cape,Douw Smit,Tanya van Zyl,N/A,N/A,Johann Minnie,Douw Smit,01/10/2018,margo@goalgroup.co.za ,N/A,andre@goalgroup.co.za,(021) 202 9535,,Approved,Momentum,July,Momentum,July,N/A,N/A,Yes,Chat to Mads,,
98,Goal Group,Branch,Makhaza,A,Cape Town,Western Cape,Douw Smit,Tanya van Zyl,N/A,N/A,Johann Minnie,Douw Smit,01/10/2018,margo@goalgroup.co.za ,N/A,andre@goalgroup.co.za,(021) 202 9535,,Approved,Momentum,July,Momentum,July,N/A,N/A,Yes,Chat to Mads,,
98,Goal Group,Branch,Strikers Meat,A,Cape Town,Western Cape,Douw Smit,Tanya van Zyl,N/A,N/A,Johann Minnie,Douw Smit,01/10/2018,margo@goalgroup.co.za ,N/A,andre@goalgroup.co.za,(021) 202 9535,,Approved,Momentum,July,Momentum,July,N/A,N/A,Yes,Chat to Mads,,
98,Goal Group,Branch,Fresh Produce,A,Cape Town,Western Cape,Douw Smit,Tanya van Zyl,N/A,N/A,Johann Minnie,Douw Smit,01/10/2018,margo@goalgroup.co.za ,N/A,andre@goalgroup.co.za,(021) 202 9535,,Approved,Momentum,July,Momentum,July,N/A,N/A,Yes,Chat to Mads,,
98,Goal Group,Branch,Laduma Logistics,A,Cape Town,Western Cape,Douw Smit,Tanya van Zyl,N/A,N/A,Johann Minnie,Douw Smit,01/10/2018,margo@goalgroup.co.za ,N/A,andre@goalgroup.co.za,(021) 202 9535,,Approved,Momentum,July,Momentum,July,N/A,N/A,Yes,Chat to Mads,,
98,Goal Group,Branch,Delft,A,Cape Town,Western Cape,Douw Smit,Tanya van Zyl,N/A,N/A,Johann Minnie,Douw Smit,01/10/2018,margo@goalgroup.co.za ,N/A,andre@goalgroup.co.za,(021) 202 9535,,Approved,Momentum,July,Momentum,July,N/A,N/A,Yes,Chat to Mads,,
98,Goal Group,Branch,Strikers Meat Khayaelitsha,A,Cape Town,Western Cape,Douw Smit,Tanya van Zyl,N/A,N/A,Johann Minnie,Douw Smit,01/10/2018,margo@goalgroup.co.za ,N/A,andre@goalgroup.co.za,(021) 202 9535,,Approved,Momentum,July,Momentum,July,N/A,N/A,Yes,Chat to Mads,,
99,GP Retail Operations,Parent,GP Retail Operations,A,Pretoria,Gauteng,George Herman,Shaneley Alberts,N/A,Lizaan Jacobs,N/A,N/A,N/A,N/A,N/A,N/A,(012) 343-6859,"19 Florence Ribeiro Avenue 
Mucklenenk
Pretoria",N/A,N/A,N/A,N/A,N/A,N/A,Momentum Health4Me,,N/A,2 Mar 2022,
100,Graanveld Primary School,Parent,Graanveld Primary School,B,Bethlehem,Freestate,George Herman,Rene Koekemoer,N/A,N/A,Tella Harris,Rayno v V / Tella Harris,01/09/2019,ronel@graanveld.co.za,N/A,N/A,(058) 303 3877,"1 Strapp Street, Bethlehem",Unapproved,Old Mutual,July,Old Mutual,July,N/A,N/A,,Yes,,
101,Greencycle,Parent,Greencycle,B,Port Elizabeth,Eastern Cape,Liesl Nienaber,N/A,N/A,Priscilla Abrahams,Liesl Nienaber,Liesl Nienaber,N/A,N/A,N/A,N/A,(041) 581-2174 / (072) 237-5895,,N/A,N/A,N/A,N/A,N/A,N/A,Momentum Health4Me,,,,
102,Greif,Parent,Greif,C,Johannesburg,Gauteng,Direct,N/A,Benice Fourie,N/A,Madeleen van den Berg,Sam van Zyl ,N/A,N/A,N/A,N/A,(031) 459-6618,"Martin Blvd
Vanderbijl Park",N/A,N/A,N/A,N/A,N/A,Discovery Health,N/A,,,,
103,Greystone Properties,Parent,Greystone Properties,CCC,Johannesburg,Gauteng,Liesl Nienaber,N/A,N/A,Lizaan Jacobs,Liesl Nienaber,Liesl Nienaber,N/A,janet@greystoneprop.co.za,Janet Lester,janet@greystoneprop.co.za,(072) 496-0641,,N/A,N/A,N/A,N/A,N/A,N/A,Momentum Health4Me,,,,
104,General Risk Administrators SA (GRSA / VAPS),Parent,General Risk Administrators SA (GRSA / VAPS),CCC,Pretoria,Gauteng,Natasha le Roux,Tanya Smit,N/A,N/A,Stian de Witt,Madeleen,01/07/2021,Denise@grsa.co.za,Frans Lensley,frans@grsa.co.za,,,Unapproved,Stangen,July,N/A,N/A,N/A,N/A,N/A,,,
105,Hall Longmore,Parent,Hall Longmore,A,Johannesburg,Gauteng,George Herman,N/A,Tracey Ellery,N/A,Madeleen van den Berg,Sam van Zyl,N/A,gerda.groenewald@hall-longmore.co.za,N/A,N/A,(011) 874-7353,,N/A,N/A,N/A,N/A,N/A,Discovery Health,N/A,,N/A,,
106,Hands on OT,Parent,Hands on OT,CCC,Johannesburg,Gauteng,Liesl Nienaber,N/A,N/A,Priscilla Abrahams,Liesl Nienaber,Liesl Nienaber,N/A,office@handonot.co.za,Raynette Smuts,N/A,(041) 373-1211,,N/A,N/A,N/A,N/A,N/A,N/A,Momentum Health4Me,,,,
107,Harith General Parnters (Pty) Ltd,Parent,Harith General Parnters (Pty) Ltd,A,Pretoria,Gauteng,Natasha le Roux,Adri Jansen van Vuuren,N/A,N/A,Patrick van Niekerk,Patrick van Niekerk,01/10/2020,elaine.kleinhans@harith.co.za ; sollie.nortje@harith.co.za ; virginia.deujfalussy@harith.co.za,,N/A,011 384 4000,"Block A1, 34 Impala Road, Chislehurston, Sandton, 2196 ",Unapproved,Discovery,October,N/A,N/A,N/A,N/A,,,,
108,"Harrison & White Contractors and AJP, Imbabala",Parent,"Harrison & White Contractors and AJP, Imbabala",C,Johannesburg,Gauteng,Direct,N/A,Benice Fourie,N/A,Madeleen van den Berg,Sam van Zyl ,N/A,Lubbe - clubbe@imbacontra.co.za,N/A,N/A,(011) 902-2952,,N/A,N/A,N/A,N/A,N/A,Discovery Health ,Momentum Health4Me,,N/A,,
109,Harambee,Parent,Harambee,CCC,Johannesburg,Gauteng,Sam Van Zyl,N/A,Benice Fourie,N/A,N/A,N/A,N/A,N/A,N/A,N/A,,,N/A,N/A,N/A,N/A,N/A,Discovery Health,N/A,,,,
110,Healthbridge Durban ,Branch,Healthbridge ,A,Durban,Kwazulu Natal,Natasha le Roux,Adri Jansen van Vuuren,N/A,N/A,N/A,Nilesh Mohanlal,N/A,N/A,N/A,N/A,N/A,N/A,Unapproved,Discovery,October,Alex Forbes,March,N/A,N/A,,,,
111,Healthbridge Head Office,Branch,Healthbridge ,A,Johannesburg,Gauteng,Natasha le Roux,Adri Jansen van Vuuren,N/A,N/A,Nilesh Mohalall,Ask Natasha for split between Nilesh & Craig,01/04/2019,ziviwe@healthbridge.co.za ,Grace Laureles,grace@tradebridge.co.za,N/A,N/A,Unapproved,Discovery,October,Alex Forbes,March,N/A,N/A,,,,
111,Healthbridge ,Parent,Healthbridge ,A,Johannesburg,Gauteng,Natasha le Roux,Adri Jansen van Vuuren,N/A,N/A,Nilesh Mohalall,Ask Natasha for split between Nilesh & Craig,01/04/2019,ziviwe@healthbridge.co.za ,Grace Laureles,grace@tradebridge.co.za,011 581 1225,"Pin Oak House, Ballyoaks Office Park, 35 Ballyclare Drive, Bryanston, 2191",Unapproved,Discovery,October,Alex Forbes,March,N/A,N/A,,,,
111,Healthbridge Bloemfontein ,Branch,Healthbridge ,A,Bloemfontein,Freestate,Natasha le Roux,Adri Jansen van Vuuren,N/A,N/A,N/A,Nilesh Mohanlal,N/A,N/A,N/A,N/A,N/A,N/A,Unapproved,Discovery,November,Alex Forbes,April,N/A,N/A,,,,
111,Healthbridge Cape Town ,Branch,Healthbridge ,A,Cape Town,Western Cape,Natasha le Roux,Adri Jansen van Vuuren,N/A,N/A,N/A,Nilesh Mohanlal,N/A,N/A,N/A,N/A,N/A,N/A,Unapproved,Discovery,December,Alex Forbes,May,N/A,N/A,,,,
111,Healthbridge Port Elizabeth,Branch,Healthbridge ,A,Port Elizabeth,Eastern Cape,Natasha le Roux,Adri Jansen van Vuuren,N/A,N/A,N/A,Nilesh Mohanlal,N/A,N/A,N/A,N/A,,N/A,Unapproved,Discovery,January,Alex Forbes,June,N/A,N/A,,,,
112,Heath & Wentzel Optometrist ,Parent,Heath & Wentzel Optometrist ,B,Pretoria,Gauteng,Natasha le Roux,Rene Koekemoer,N/A,N/A,Stian de Witt,Rayno v V / Stian de Witt,01/06/2019,ilze@hwoptom.co.za,N/A,N/A,012 348 1177 ,"Cnr Friesland Lane & Rosemary Rd, Lynnwood, Pretoria",Unapproved,Momentum,July,N/A,N/A,N/A,N/A,,N/a,,
113,Henk van der Walt,,,,,,,,,,,,,saartjie.vanzyl@attooh.co.za,N/A,N/A,,,,,,,,,,,,,
114,HESC,,,A,Pretoria,Gauteng,George Herman,Tanya Smit,N/A,N/A,,,N/A,stephnievw@mweb.co.za,N/A,N/A,823282693,,Approved,Liberty,,N/A,N/A,N/A,N/A,,,,
115,Hetronic,Parent,Hetronic,C,Johannesburg,Gauteng,George Herman,N/A,Benice Fourie,Priscilla Abrahams,Madeleen van den Berg,Stian de Witt,N/A,desiree@hetronicsa.co.za,Desiree,N/A,(011) 027-9935,"Unit 4 
56 Detroit Street
Apex 
Benoni",N/A,N/A,N/A,N/A,N/A,Discovery Health,Momentum Health4Me,,,,
116,Hicell Cellular,Parent,Hicell,A,Pretoria,Gauteng,George Herman,Tanya van Zyl,N/A,Priscilla Abrahams,Ben Nel,Rayno v V / Ben Nel,01/05/2021 (EB),Wendy@hicell.co.za ,Reneilwe@hicell.co.za,Tokkie@hicell.co.za,(012) 653-2883,"420 Theuns Van Niekerk Street
Wierdapark South",Unapproved,Momentum,July,N/A,N/A,N/A,Momentum Health4Me,N/A,2022,,
116,Hicell Ayanda Cellular,Branch,Hicell,A,Pretoria,Gauteng,George Herman,Tanya van Zyl,N/A,Priscilla Abrahams,Ben Nel,Rayno v V / Ben Nel,01/05/2021 (EB),Wendy@hicell.co.za,Reneilwe@hicell.co.za,Tokkie@hicell.co.za,(012) 653-2883,"420 Theuns Van Niekerk Street
Wierdapark South",Unapproved,Momentum,July,N/A,N/A,N/A,Momentum Health4Me,,,,
116,Hicell V Shops,Branch,Hicell,A,Pretoria,Gauteng,George Herman,Tanya van Zyl,N/A,Priscilla Abrahams,Ben Nel,Rayno v V / Ben Nel,01/05/2021 (EB),Wendy@hicell.co.za,Reneilwe@hicell.co.za,Tokkie@hicell.co.za,(012) 653-2883,"420 Theuns Van Niekerk Street
Wierdapark South",Unapproved,Momentum,July,N/A,N/A,N/A,Momentum Health4Me,,,,
116,Hicell MBAU Cellular,Branch,Hicell,A,Pretoria,Gauteng,George Herman,Tanya van Zyl,N/A,Priscilla Abrahams,Ben Nel,Rayno v V / Ben Nel,01/05/2021 (EB),Wendy@hicell.co.za,Reneilwe@hicell.co.za,Tokkie@hicell.co.za,(012) 653-2883,"420 Theuns Van Niekerk Street
Wierdapark South",Unapproved,Momentum,July,N/A,N/A,N/A,Momentum Health4Me,,,,
116,Hicell Nautilis Trading,Branch,Hicell,A,Pretoria,Gauteng,George Herman,Tanya van Zyl,N/A,Priscilla Abrahams,Ben Nel,Rayno v V / Ben Nel,01/05/2021 (EB),Wendy@hicell.co.za,Reneilwe@hicell.co.za,Tokkie@hicell.co.za,(012) 653-2883,"420 Theuns Van Niekerk Street
Wierdapark South",Unapproved,Momentum,July,N/A,N/A,N/A,Momentum Health4Me,,,,
116,Hicell OLIVE,Branch,Hicell,A,Pretoria,Gauteng,George Herman,Tanya van Zyl,N/A,Priscilla Abrahams,Ben Nel,Rayno v V / Ben Nel,01/05/2021 (EB),Wendy@hicell.co.za,Reneilwe@hicell.co.za,Tokkie@hicell.co.za,(012) 653-2883,"420 Theuns Van Niekerk Street
Wierdapark South",Unapproved,Momentum,July,N/A,N/A,N/A,Momentum Health4Me,,,,
116,Hicell TFMC Cellular,Branch,Hicell,A,Pretoria,Gauteng,George Herman,Tanya van Zyl,N/A,Priscilla Abrahams,Ben Nel,Rayno v V / Ben Nel,01/05/2021 (EB),Wendy@hicell.co.za,Reneilwe@hicell.co.za,Tokkie@hicell.co.za,(012) 653-2883,"420 Theuns Van Niekerk Street
Wierdapark South",Unapproved,Momentum,July,N/A,N/A,N/A,Momentum Health4Me,,,,
116,Hicell Villa Des Roses,Branch,Hicell,A,Pretoria,Gauteng,George Herman,Tanya van Zyl,N/A,Priscilla Abrahams,Ben Nel,Rayno v V / Ben Nel,01/05/2021 (EB),Wendy@hicell.co.za,Reneilwe@hicell.co.za,Tokkie@hicell.co.za,(012) 653-2883,"420 Theuns Van Niekerk Street
Wierdapark South",Unapproved,Momentum,July,N/A,N/A,N/A,Momentum Health4Me,,,,
117,HLSA Hrtemp,,,,,,,,,,,,,hlsa-hrtemp@hoya.co.za,,,,,,,,,,,,,,,
118,Hoedspruit Endangered Species,Parent,HESC,A,,Gauteng,George Herman,N/A,N/A,Lizaan Jacobs,Philip Roesch,,N/A,accounts@hesc.co.za,N/A,N/A,,,N/A,N/A,N/A,N/A,N/A,N/A,Momentum Health4Me,,,,
119,Hornattorneys,,,,,,,,,,,,,michelle@hornattorneys.co.za,,,,,,,,,,,,,,,
120,Hoya Hill Optics SA,Parent,Hoya Hill Optics SA,A,Johannesburg,Gauteng,Natasha le Roux,Adri Jansen van Vuuren,Benice Fourie,Priscilla Abrahams,Madeleen van den Berg,Johan vd M,01/01/2017,cfourie@hoya.co.za,Carli Fourie,N/A,(010) 900-2978,"301 Dartfield Road
Eastgate Ext 3
Sandton",Unapproved,Discovery,January,Alex Forbes,January,Discovery Health,Momentum Health4Me,,,,
120,Hoya Hill Optics SA Bloemfontein,Branch,Hoya Hill Optics SA,A,Bloemfontein,Freestate,Natasha le Roux,Adri Jansen van Vuuren,Benice Fourie,Priscilla Abrahams,Madeleen van den Berg,Duane Nienaber,N/A,No relationship,N/A,N/A,(010) 900-2978,"301 Dartfield Road
Eastgate Ext 3
Sandton",Unapproved,Discovery,January,Alex Forbes,January,Discovery Health,Momentum Health4Me,,N/A,,
120,Hoya Hill Optics SA Cape Town,Branch,Hoya Hill Optics SA,A,Cape Town,Western Cape,Douw Smit,Adri Jansen van Vuuren,Benice Fourie,Priscilla Abrahams,Madeleen van den Berg,Douw Smit,N/A,Nabe Thabo,N/A,N/A,(010) 900-2978,"301 Dartfield Road
Eastgate Ext 3
Sandton",Unapproved,Discovery,January,Alex Forbes,January,Discovery Health,Momentum Health4Me,,Head office,,
120,Hoya Hill Optics SA Durban,Branch,Hoya Hill Optics SA,A,Durban,Kwazulu Natal,Natasha le Roux,Adri Jansen van Vuuren,Benice Fourie,Priscilla Abrahams,Madeleen van den Berg,Johan vd Mescht,N/A,"Natalie Suttie, nsuttie@hoya.co.za, +27 (071 438 0765)",N/A,N/A,(010) 900-2978,"301 Dartfield Road
Eastgate Ext 3
Sandton",Unapproved,Discovery,January,Alex Forbes,January,Discovery Health,Momentum Health4Me,,,,
120,Hoya Hill Optics SA Johannesburg,Branch,Hoya Hill Optics SA,A,Johannesburg,Gauteng,Natasha le Roux,Adri Jansen van Vuuren,Benice Fourie,Priscilla Abrahams,Madeleen van den Berg,Johan vd M,N/A,gdreyer@hoya.co.za,N/A,N/A,(010) 900-2978,"301 Dartfield Road
Eastgate Ext 3
Sandton",Unapproved,Discovery,January,Alex Forbes,January,Discovery Health,Momentum Health4Me,,,,
120,Hoya Hill Optics SA Port Elizabeth,Branch,Hoya Hill Optics SA,A,Port Elizabeth,Eastern Cape,Liesl Nienaber,Adri Jansen van Vuuren,Benice Fourie,Priscilla Abrahams,Madeleen van den Berg,Liesl Nienaber,N/A,N/A,N/A,N/A,(010) 900-2978,"301 Dartfield Road
Eastgate Ext 3
Sandton",Unapproved,Discovery,January,Alex Forbes,January,Discovery Health,Momentum Health4Me,,,,
121,Huge Networks (OTEL),Parent,Huge Networks (OTEL),B,Pretoria,Gauteng,Natasha le Roux,Rene Koekemoer,Benice Fourie,Priscilla Abrahams,Herman Visser,Rayno v V / Herman Visser,01/05/2017,N/A,Lucia Vermaak,N/A,(010) 786-0000,"267 West Avenue
2nd Floor - Die Hoewes
Centurion",Approved,Capital Alliance,May,Tennant,May,Discovery Health,Momentum Health4Me,,,,
122,Huge Telecom,,,,,,,,,,,,,cbingma@hugetelecom.co.za ; rburger@hugetelecom.co.za,N/A,N/A,,"1st Floor, East Wing
146A Kelvin Drive
Woodmead",,,,,,,,,,,
123,Humble Till,Parent,Humble Till,B,Johannesburg,Gauteng,Natasha le Roux,Rene Koekemoer,N/A,N/A,Madeleen van den Berg,Ask Natasha for split between Nilesh & Craig,01/01/2020,alwyn@humbletill.com ; christiaan@humbletill.com,N/A,N/A,010 100 3888,"43 Reitz Str, Somerset West, Cape Town",Unapproved,Discovery,January,N/A,N/A,N/A,N/A,,,,
124,Hyperpool Equipment,Parent,Hyperpool Equipment,C,Bloemfontein,Freestate,George Herman,N/A,N/A,Lizaan Jacobs,Madeleen van den Berg,Duane Nienaber,N/A,debtors@hyperpool.co.za,N/A,N/A,(051) 432-4397,"16 Fred Carter Street
New East End
Bloemfontein",N/A,N/A,N/A,N/A,N/A,N/A,Momentum Health4Me,,N/A,,
125,IBI,,,,,,,,,,,,,mal@ibi.co.za,,,,,,,,,,,,,,,
126,ICL Consulting,Parent,ICL Consulting,C,Pretoria,Gauteng,Natasha le Roux,Rene Koekemoer,N/A,N/A,Rene du Preez,Rayno v V / Rene du Preez,01/04/2016,naidoon@fikani.co.za,N/A,N/A,082 575 7897 (Lerato),"Stand 932, Route-21 Office Park, Irene",Approved,Capital Alliance,April,Tennant,April,N/A,N/A,,,,
127,ICRC,Parent,,A,,,George Herman,Adri Jansen van Vuuren,N/A,N/A,,,,Jorika Engelbrecht <jengelbrecht@icrc.org>,N/A,N/A,,,N/A,N/A,N/A,Alex Forbes,Don't know yet,N/A,N/A,,,,
128,ID Control Solutions,Parent,ID Control Solutions,B,Port Elizabeth,Eastern Cape,Liesl Nienaber,Shaneley Alberts,N/A,N/A,Madeleen van den Berg,Madeleen,01/10/2020,val@idcontrol.co.za,N/A,info@idcontrol.co.za,041 541 1120,"6A Worraker Street
Newton Park
Gqeberha",,Sanlam,April,Sanlam,April,N/A,N/A,,,,
129,IDC Research Uastral Africa (Pty) Ltd,Parent,IDC Research Uastral Africa (Pty) Ltd,C,Johannesburg,Gauteng,Direct,N/A,Tracey Ellery,N/A,Natasha le Roux,Johan vd M,N/A,alombaard@idc.com,N/A,N/A,,"The Woodlands Office Park
Building 21BC - 1st Floor
Woodlands",N/A,N/A,N/A,N/A,N/A,Discovery Health,N/A,,N/a,,
130,IGBS,,,,,,,,,,,,,Michelle.Magor@innovation.group,N/A,N/A,,,,,,,,,,,,,
131,Imbalie Beauty Limited & Franchises,Parent,Imbalie Beauty Limited & Franchises,A,Johannesburg,Gauteng,Natasha le Roux,Adri Jansen van Vuuren,N/A,Lizaan Jacobs,Madeleen van den Berg,Patric v N,01/03/2012,hr@imbaliebeauty.co.za ; dnbsqr@vodamail.co.za ; samanthamayl@gmail.com ; emmachetty1@gmail.com ; sara.ven7@gmail.com; lawnirupa@telkomsa.net ; benfleur@placecol.com; benfleur@perfect10.co.za ; mariska@imbaliebeauty.co.za ; sohanasingh@gmail.com; anisha.pnb@vodamail.co.za ; wayne@cenprop.co.za; desigan@afrishe.co.za ; kerisha.reddy@gmail.com ; Samantha.Naicker@absa.co.za ; saniamariamahmed@gmail.com ; hr@zanogen.co.za; shamainnaidoo8@gmail.com; perfect10westwood@gmail.com; 27716036635@vodamail.co.za; marienel@myconnection.co.za; moniquenel32@gmail.com; karen@placecol.com ; ruth.ramaboea@gmail.com; hillcrest@placecol.com; lieslstulting@gmail.com; vsomiah232@gmail.com; a.mareiks@yahoo.com; tessa.callow22@gmail.com; kim@placecol.com; magashulet@gmail.com ; anisha3072@gmail.com; esna@imbaliebeauty.co.za; berenice@imbaliebeauty.co.za; rina@imbaliebeauty.co.za,Esna Colyn ,esna@imbaliebeauty.co.za,,,Approved,Discovery,March,Tennant,March,N/A,Momentum Health4Me,,,,
131,Imbalie Beauty Limited & Franchises Bloemfontein,Branch,Imbalie Beauty Limited & Franchises,A,Bloemfontein,Freestate,Natasha le Roux,Adri Jansen van Vuuren,N/A,Lizaan Jacobs,Madeleen van den Berg,Duane Nienaber,N/A,No relationship,N/A,N/A,,,Approved,Discovery,March Benefit statments only end Aug,Tennant,March Benefit statements only end August,N/A,Momentum Health4Me,,N/A,,
131,Imbalie Beauty Limited & Franchises Cape Town,Branch,Imbalie Beauty Limited & Franchises,A,Cape Town,Western Cape,Douw Smit,Adri Jansen van Vuuren,N/A,Lizaan Jacobs,Madeleen van den Berg,Douw Smit,N/A,N/A,N/A,N/A,,,Approved,Discovery,March Benefit statments only end Aug,Tennant,March Benefit statements only end August,N/A,Momentum Health4Me,,Head office,,
131,Imbalie Beauty Limited & Franchises Durban,Branch,Imbalie Beauty Limited & Franchises,A,Durban,Kwazulu Natal,Natasha le Roux,Adri Jansen van Vuuren,N/A,Lizaan Jacobs,Madeleen van den Berg,Johan vd Mescht,N/A,Elize van Geert <hr@imbaliebeauty.co.za>; Esna Colyn <esna@imbaliebeauty.co.za>; Rina de Jager <rina@imbaliebeauty.co.za>,,N/A,,,Approved,Discovery,March Benefit statments only end Aug,Tennant,March Benefit statements only end August,N/A,Momentum Health4Me,,,,
131,Imbalie Beauty Limited & Franchises Johannesburg,Branch,Imbalie Beauty Limited & Franchises,A,Johannesburg,Gauteng,Natasha le Roux,Adri Jansen van Vuuren,N/A,Lizaan Jacobs,Madeleen van den Berg,Johan vd M,N/A,Elize van Geert <hr@imbaliebeauty.co.za>; Esna Colyn <esna@imbaliebeauty.co.za>; Rina de Jager <rina@imbaliebeauty.co.za>,,N/A,,,Approved,Discovery,March Benefit statments only end Aug,Tennant,March Benefit statements only end August,N/A,Momentum Health4Me,,,,
131,Imbalie Beauty Limited & Franchises Port Elizabeth,Branch,Imbalie Beauty Limited & Franchises,A,Port Elizabeth,Eastern Cape,Natasha le Roux,Adri Jansen van Vuuren,N/A,Lizaan Jacobs,Madeleen van den Berg,Liesl Nienaber,N/A,N/A,N/A,N/A,,,Approved,Discovery,March Benefit statments only end Aug,Tennant,March Benefit statements only end August,N/A,Momentum Health4Me,,,,
131,Imbalie Beauty Flagship,Branch,Imbalie Beauty Limited & Franchises,A,Johannesburg,Gauteng,Natasha le Roux,Adri Jansen van Vuuren,N/A,Lizaan Jacobs,Madeleen van den Berg,N/A,N/A,N/A,N/A,N/A,(011) 326-4289,,Approved,,,,,N/A,Momentum Health4Me,,,,
131,Imbalie Eldre Beauty,Branch,Imbalie Beauty Limited & Franchises,A,Johannesburg,Gauteng,Natasha le Roux,Adri Jansen van Vuuren,N/A,Lizaan Jacobs,Madeleen van den Berg,N/A,N/A,N/A,N/A,N/A,(013) 692-8412,,Approved,,,,,N/A,Momentum Health4Me,,,,
131,Imbalie iBloom Training College,Branch,Imbalie Beauty Limited & Franchises,A,Johannesburg,Gauteng,Natasha le Roux,Adri Jansen van Vuuren,N/A,Lizaan Jacobs,Madeleen van den Berg,N/A,N/A,N/A,N/A,N/A,(011) 086-9800,,Approved,,,,,N/A,Momentum Health4Me,,,,
131,Imbalie Placecol Clearwater,Branch,Imbalie Beauty Limited & Franchises,A,Johannesburg,Gauteng,Natasha le Roux,Adri Jansen van Vuuren,N/A,Lizaan Jacobs,Madeleen van den Berg,N/A,N/A,N/A,N/A,N/A,(011) 675-0508,,Approved,,,,,N/A,Momentum Health4Me,,,,
131,Imbalie Placecol Cresta,Branch,Imbalie Beauty Limited & Franchises,A,Johannesburg,Gauteng,Natasha le Roux,Adri Jansen van Vuuren,N/A,Lizaan Jacobs,Madeleen van den Berg,N/A,N/A,N/A,N/A,N/A,,,Approved,,,,,N/A,Momentum Health4Me,,,,
131,Imbalie Placecol Fresh Beauty,Branch,Imbalie Beauty Limited & Franchises,A,Johannesburg,Gauteng,Natasha le Roux,Adri Jansen van Vuuren,N/A,Lizaan Jacobs,Madeleen van den Berg,N/A,N/A,N/A,N/A,N/A,(011) 086-9800,,Approved,,,,,N/A,Momentum Health4Me,,,,
131,Imbalie Placecol Spa,Branch,Imbalie Beauty Limited & Franchises,A,Johannesburg,Gauteng,Natasha le Roux,Adri Jansen van Vuuren,N/A,Lizaan Jacobs,Madeleen van den Berg,N/A,N/A,N/A,N/A,N/A,(011) 086-9800,,Approved,,,,,N/A,Momentum Health4Me,,,,
132,Indgro,Parent,Adcorp,A,Vereeniging,Gauteng,George Herman,Tanya Smit,N/A,N/A,Anneline,Madeleen,N/A,N/A,N/A,N/A,,"1st Floor - Junxion Building
Chopin Street
Vanderbijl Park",Approved,,,,,N/A,N/A,,,,
133,Ingwenya - Witbank,Parent,Ingwenya - Witbank,A,Witbank,Mpumalanga,George Herman,Adri Jansen van Vuuren,Benice Fourie,N/A,Madeleen van den Berg,Madeleen,N/A,Deon Ackerman - deona@ingwenyamp.co.za,Melanie van Rooyen - melanievr@ingwenyamp.co.za,N/A,(013) 656-2440  / 4758,"Unit 12 - Smokey Mountain Office Village
Route N4 Office Park
Ben Fleur Ext 11
Emalahleni (Witbank)",Approved,Discovery,September,Alex Forbes,June,Bonitas / Medihelp,N/A,,N/A,,
134,Inhle Beverages,Parent,Inhle Beverages,A,Heidelberg,Gauteng,George Herman,Shaneley Alberts,Benice Fourie,Priscilla Abrahams,Dewald Brits,Dewald Brits,01/09/2020,reception@inhlebev.co.za,Rhodine,neil@inclebev.co.za,(016) 341-9030 / 1 / 2,"Portion 159
Farm Houtpoort
Heidelberg ",Approved,Old Mutual,July,Old Mutual,July,Discovery Health,Momentum Health4Me,,Yes,7 Apr 2022,
135,Innovation ,Parent,Innovation,CCC,Johannesburg,Gauteng,Sam Van Zyl,Mark Broeke,Benice Fourie,Benice Fourie,Madeleen van den Berg,Johan vd M,N/A,Andries.VanStaden@innovation.group ; Bernadine.Hudson@innovation.group ; Namrika.VanWyk@innovation.group ; Natasha.vandenBerg@innovation.group ; Phinda.Xaba@innovation.group; Rodger.Pretorius@innovation.group; Saadiqa.Richards@innovation.group; susan@innovativestaff.net; ceo@isg.co.za; admin@innovativestaff.net; hannelize@innovativestaff.net ,,N/A,(011) 790-5222,"155 West Street
Sandown
Sandton",Unapproved,Discovery,June,Alex Forbes,June,Discovery Health / Momentum Health and Health4me,Momentum Health4Me,,,,
135,Innovation IGS,Branch,Innovation,CCC,Johannesburg,Gauteng,Sam Van Zyl,Mark Broeke,Benice Fourie,Benice Fourie,Madeleen van den Berg,Johan vd M,N/A,Phinda.Xaba@innovation.group,N/A,N/A,(011) 790-5222,"155 West Street
Sandown
Sandton",,,,,,Discovery Health / Momentum Health and Health4me,Momentum Health4Me,,,,
135,Innovation IGD,Branch,Innovation,CCC,Johannesburg,Gauteng,Sam Van Zyl,Mark Broeke,Benice Fourie,Benice Fourie,Madeleen van den Berg,Johan vd M,N/A,Phinda.Xaba@innovation.group,N/A,N/A,(011) 790-5222,"155 West Street
Sandown
Sandton",,,,,,Discovery Health / Momentum Health and Health4me,Momentum Health4Me,,,,
135,Innovation FSP,Branch,Innovation,CCC,Johannesburg,Gauteng,Sam Van Zyl,Mark Broeke,Benice Fourie,Benice Fourie,Madeleen van den Berg,Johan vd M,N/A,Phinda.Xaba@innovation.group,N/A,N/A,(011) 790-5222,"155 West Street
Sandown
Sandton",,,,,,Discovery Health / Momentum Health and Health4me,Momentum Health4Me,,,,
135,Innovation IP,Branch,Innovation,CCC,Johannesburg,Gauteng,Sam Van Zyl,Mark Broeke,Benice Fourie,Benice Fourie,Madeleen van den Berg,Johan vd M,N/A,Phinda.Xaba@innovation.group,N/A,N/A,(011) 790-5222,"155 West Street
Sandown
Sandton",,,,,,Discovery Health and Health4me,Momentum Health4Me,,,,
136,International Assessment Centre (Polyinstitute),Parent,International Assessment Centre (Polyinstitute),B,Centurion,Gauteng,Natasha le Roux,Shaneley Alberts,N/A,Priscilla Abrahams,Hennie Jonker,Hennie Jonker,01/12/2021,Joanette Karsten <joanette@polyinstitute.co.za>,Lindie Janse van Rensburg <admin@polyinstitute.co.za>,admin@polyinstitute.co.za,012 765 28000,"Unit 1 Manhattan Office Park
16 Pieter Street
Highveld Techno Park
Centurion",Approved,Old Mutual,July,Old Mutual,July,N/A,Momentum Health4Me,,,13 Mar 2022,
137,Intersurgical,Parent,Intersurgical,C,Johannesburg,Gauteng,Direct,N/A,Benice Fourie,N/A,Madeleen van den Berg,Sam van Zyl ,N/A,yvonne@intersurgical.co.za,N/A,N/A,,"Unit 6 Eastgate Business Park
South Road
Marlboro
Sandton",N/A,N/A,N/A,N/A,N/A,Discovery Health,N/A,,,,
138,Investment Databank South Africa,Parent,Investment Databank South Africa,A,Cape Town,Western Cape,Douw Smit,Tanya Smit,N/A,N/A,Madeleen van den Berg,Douw Smit,01/09/2020,N/A,N/A,N/A,,,,Sanlam,April,Sanlam,April,N/A,N/A,,,,
,IPT Holdings,,IPT Holdings,,Centurion,Gauteng,Natasha le Roux,Shaneley Alberts,N/A,N/A,Andries Vermaak,N/A,N/A,anekam@ipth.co.za,N/A,anekam@ipth.co.za,(012) 749-1000,"Bylsbridge Office Park Building 14
Ground Floor Block C
Jean Avenue & Olievenhoutbosch Road
Centurion",Unapproved,Sanlam,,N/A,N/A,N/A,N/A,,,,
139,IT Masters,Parent,IT Masters,A,Midrand,Gauteng,Natasha le Roux,Shaneley Alberts,Benice Fourie,Lizaan Jacobs,Stian de witt,Rayno v V / Stian de Witt,01/05/2019,"candice.pierce@itmaster.co.za ; Ina.Venter@itmaster.co.za , Eunice.Steenkamp@itmaster.co.za, Ryan.emery@itmasters.co.za",Candice Pierce ,Ryan.emery@itmaster.co.za,(012) 667-6878,"114 Olievenhoutbosch Avenue ext 4
Kosmosdal
Centurion",Unapproved,Sanlam,April,Sanlam,April,Discovery Health,Momentum Health4Me,,,,1 Jun 2021
140,JFM Logistics,Parent,JFM Logistics,A,Port Elizabeth,Eastern Cape,Liesl Nienaber,Tanya van Zyl,N/A,N/A,Liesl Nienaber,Liesl Nienaber,01/07/2021,Dorina Black - hr@jfmlog.co.za,N/A,N/A,041 373 1065,,Approved,Momentum,July,Momentum,July,N/A,N/A,,,,
141,JJR - Jarvis Jacobs Raubenheimer,Parent,JJR - Jarvis Jacobs Raubenheimer,C,Pretoria,Gauteng,Natasha le Roux,Rene Koekemoer,N/A,Lizaan Jacobs,Philip Roesch,Rayno v V ,01/05/2013,elri@jjrinc.co.za,Johann Jacobs,johann@jjrinc.co.za,(012) 362-5787,"308 Brooks Street
Menlo Park
Pretoria East",Unapproved,Momentum,July,N/A,N/A,N/A,Momentum Health4Me,,,,
142,JR Lubricants,Parent,JR Lubricants,B,Heidelberg,Gauteng,George Herman,Shaneley Alberts,N/A,N/A,Andries Vermaak,Andries Vermaak,01/03/2022,jaco@jrlubricants.co.za,admin@jrlubricants.co.za,"melanie@jrlubricants.co.za
standerton@jrlubricants.co.za
jaco@jrlubricants.co.za","016 342 0000/ 082 809 1008 
082 889 1009/ 016 023 4297","14 Alberts Street               /  7 Vry Straat
Industrial                           /  Standerton
Heidelberg                        /  Mpumalanga",Approved,Momentum,July,Momentum,July,N/A,N/A,,,,
143,Just Short,Parent,Just Short,CCC,Johannesburg,Gauteng,Sam Van Zyl,N/A,Benice Fourie,N/A,N/A,N/A,N/A,N/A,N/A,N/A,,,N/A,N/A,N/A,N/A,N/A,Discovery Health,N/A,,,,
144,Johmelia ,Parent,Johmelia ,A,Johannesburg,Gauteng,George Herman,Rene Koekemoer,N/A,N/A,Madeleen van den Berg,Johan vd M,01/06/2016,odette@johmelia.co.za,N/A,N/A,011 739 2017/9,"45 Breytenbach Street, Nigel",Unapproved,Keyrisk,August,Tennant,August,N/A,N/A,,No,,
145,K&K Trading & Investment (Naledi Lodge),Parent,K&K Trading & Investment (Naledi Lodge),A,Hoedspruit,Mpumalanga,George Herman,Tanya Smit,N/A,N/A,Ian Marais,Rayno v V / Ian Marais,01/09/2017,Only need to do year end again,N/A,N/A,,,Unapproved,Old Mutual,July,Old Mutual,July,N/A,N/A,,No,,
146,Kaspersky Labs WE ARE NOT THE BROKER ANYMORE,,,,,,,,,,,,,N/A,N/A,N/A,,"Building 15 - Thornhill Office Park
Bekker Road
Vorna Valley 
Midrand",,,,,,,,,,,
147,Keystone Milling,Parent,Keystone Milling,A,Rustenburg,North West,Nadine Lewis,Nadine Lewis,N/A,N/A,Brenda Potgieter,Nadine,N/A,Edna La Grange,N/A,N/A,,,N/A,N/A,N/A,N/A,N/A,N/A,N/A,,October,,
148,KFC Restaurants - Managed by Kwa Pele Foods,Parent,KFC Restaurants - Managed by Kwa Pele Foods,A,Johannesburg,Gauteng,George Herman,Shaneley Alberts,N/A,N/A,Ben Nel,Rayno v V / Ben Nel,01/07/2019,Awie Oberholzer <awie.oberholzer@kpf.co.za>,N/A,N/A,,,Approved,Sanlam,April,Sanlam,April,N/A,N/A,Yes,Yes,,Yes
149,Khanya,Parent,Khanya,CCC,Johannesburg,Gauteng,Liesl Nienaber,N/A,N/A,Priscilla Abrahams,Liesl Nienaber,Liesl Nienaber,N/A,Kobie@khanya.biz,N/A,N/A,(041) 484-3773,,N/A,N/A,N/A,N/A,N/A,N/A,Momentum Health4Me,,,,
150,Kholo Drilling,,,,,,,,,,,,,N/A,N/A,N/A,,,,,,,,,,,,,
151,Kinetix Group,Parent,Kinetix Group,A,Johannesburg,Gauteng,George Herman,Shaneley Alberts,N/A,Lizaan Jacobs,Madeleen van den Berg,Patric v N,01/04/2018,N/A,N/A,palesa@kinetixgroup.co.za,087 230 8740,"133 Edison Crescent
Hennopspark
Centurion",Approved,Momentum,July,Momentum,July,N/A,Momentum Health4Me,,Yes,,
151,Kinetix Group Cape Town,Branch,Kinetix Group,B,Cape Town,Western Cape,Douw Smit,Shaneley Alberts,N/A,Lizaan Jacobs,Madeleen van den Berg,Douw Smit,N/A,ashmaharaj@protonmail.com,N/A,palesa@kinetixgroup.co.za,087 230 8740,"133 Edison Crescent
Hennopspark
Centurion",Approved,Momentum,July,Momentum,July,N/A,N/A,,Head office,,
151,Kinetix Group Durban,Branch,Kinetix Group,B,Durban,Kwazulu Natal,Natasha le Roux,Shaneley Alberts,N/A,Lizaan Jacobs,Madeleen van den Berg,Johan vd Mescht,N/A,ashmaharaj@protonmail.com,N/A,palesa@kinetixgroup.co.za,087 230 8740,"133 Edison Crescent
Hennopspark
Centurion",Approved,Momentum,July,Momentum,July,N/A,N/A,,,,
151,Kinetix Group Johannesburg,Branch,Kinetix Group,A,Pretoria,Gauteng,George Herman,Shaneley Alberts,N/A,Lizaan Jacobs,Madeleen van den Berg,Patric v N,N/A,ashmaharaj@protonmail.com,N/A,palesa@kinetixgroup.co.za,087 230 8740,"133 Edison Crescent
Hennopspark
Centurion",Approved,Momentum,July,Momentum,July,N/A,N/A,,N/A,,
151,Kinetix Connect,Branch,Kinetix Group,,Pretoria,Gauteng,George Herman,Shaneley Alberts,N/A,Lizaan Jacobs,Madeleen van den Berg,N/A,N/A,ashmaharaj@protonmail.com,N/A,palesa@kinetixgroup.co.za,087 230 8740,"133 Edison Crescent
Hennopspark
Centurion",Approved,Momentum,July,Momentum,July,N/A,Momentum Health4Me,,,,
151,Kinetix Technologies,Branch,Kinetix Group,,Pretoria,Gauteng,George Herman,Shaneley Alberts,N/A,Lizaan Jacobs,Madeleen van den Berg,N/A,N/A,ashmaharaj@protonmail.com,N/A,palesa@kinetixgroup.co.za,087 230 8740,"133 Edison Crescent
Hennopspark
Centurion",Approved,Momentum,July,Momentum,July,N/A,Momentum Health4Me,,,,
152,King Price ,Parent,King Price ,A,Pretoria,Gauteng,Natasha le Roux,Tanya Smit,Benice Fourie,N/A,Stian de Witt,Rayno v V / Stian de Witt,01/01/2017,Ross.Muller@porcupine.ai,Mari Venter,mari.venter@porcupin.ai,,"Block A - Menlyn Corporate Park
175 Corobay Avenue
Waterkloof Glen ext 11 
Pretoria",Unapproved,Stangen,July,N/A,N/A,Discovery Health / Momentum Health  ,N/A,,,,
152,King Price Durban,Branch,King Price ,A,Durban,Kwazulu Natal,Natasha le Roux,Tanya Smit,Benice Fourie,N/A,Stian de Witt,Rayno v V / Stian de Witt,N/A,Quintin Herbst <Quintin.Herbst@kingprice.co.za>,,N/A,,"Block A - Menlyn Corporate Park
175 Corobay Avenue
Waterkloof Glen ext 11 
Pretoria",Unapproved,Stangen,July,N/A,N/A,Discovery Health / Momentum Health  ,N/A,,,,
152,King Price Nelspruit,Branch,King Price ,A,Nelspruit,Mpumalanga,Natasha le Roux,Tanya Smit,Benice Fourie,N/A,Stian de Witt,Rayno v V/ Stian de Witt,N/A,werner.hennop@kingprice.co.za,N/A,N/A,,"Block A - Menlyn Corporate Park
175 Corobay Avenue
Waterkloof Glen ext 11 
Pretoria",Unapproved,Stangen,July,N/A,N/A,Discovery Health / Momentum Health  ,N/A,,,,
152,King Price Pretoria,Branch,King Price ,A,Pretoria,Gauteng,Natasha le Roux,Tanya Smit,Benice Fourie,N/A,Stian de Witt,Rayno v V / Stian de Witt,N/A,payroll@kingprice.co.za ,N/A,N/A,,"Block A - Menlyn Corporate Park
175 Corobay Avenue
Waterkloof Glen ext 11 
Pretoria",Unapproved,Stangen,July,N/A,N/A,Discovery Health / Momentum Health  ,N/A,,,,
152,King Price ,Branch,King Price ,A,Pretoria,Gauteng,Natasha le Roux,Tanya Smit,Benice Fourie,N/A,Stian de Witt,Rayno v V / Stian de Witt,N/A,payroll@kingprice.co.za ,hr@procupine.co.za,N/A,,"Block A - Menlyn Corporate Park
175 Corobay Avenue
Waterkloof Glen ext 11 
Pretoria",Unapproved,Stangen,July,N/A,N/A,Discovery Health / Momentum Health  ,N/A,,,,
152,King Price - Procupine,Branch,Procupine,A,Pretoria,Gauteng,Natasha le Roux,Tanya Smit,Benice Fourie,N/A,Stian de Witt,Rayno v V / Stian de Witt,N/A,payroll@kingprice.co.za ,hr@procupine.co.za,N/A,,"Block A - Menlyn Corporate Park
175 Corobay Avenue
Waterkloof Glen ext 11 
Pretoria",Unapproved,Stangen,July,N/A,N/A,Discovery Health / Momentum Health  ,N/A,,,,
152,King Price - Stangen,Branch,Stangen,A,Pretoria,Gauteng,Natasha le Roux,Tanya Smit,Benice Fourie,N/A,Stian de Witt,Rayno v V / Stian de Witt,N/A,payroll@kingprice.co.za ,hr@procupine.co.za,N/A,,"Block A - Menlyn Corporate Park
175 Corobay Avenue
Waterkloof Glen ext 11 
Pretoria",Unapproved,Stangen,July,N/A,N/A,Discovery Health,N/A,,,,
153,Koanne,Parent,Koanne,CCC,Johannesburg,Gauteng,Natasha le Roux,N/A,Benice Fourie,N/A,N/A,N/A,N/A,clg.jwg@gmail.com,N/A,N/A,,,N/A,N/A,N/A,N/A,N/A,Discovery Health,N/A,,,6 Apr 2022,
153,Koanne,Branch,,CCC,,,Natasha le Roux,N/A,Benice Fourie,N/A,N/A,N/A,N/A,clg.jwg@gmail.com,N/A,N/A,,,N/A,N/A,N/A,N/A,N/A,Discovery Health,N/A,,,,
153,Koanne,Branch,,CCC,,,Natasha le Roux,N/A,Benice Fourie,N/A,N/A,N/A,N/A,clg.jwg@gmail.com,N/A,N/A,,,N/A,N/A,N/A,N/A,N/A,Discovery Health,N/A,,,,
153,Koanne,Branch,,CCC,,,Natasha le Roux,N/A,Benice Fourie,N/A,N/A,N/A,N/A,clg.jwg@gmail.com,N/A,N/A,,,N/A,N/A,N/A,N/A,N/A,Discovery Health,N/A,,,,
153,Koanne,Branch,,CCC,,,Natasha le Roux,N/A,Benice Fourie,N/A,N/A,N/A,N/A,clg.jwg@gmail.com,N/A,N/A,,,N/A,N/A,N/A,N/A,N/A,Discovery Health,N/A,,,,
181,Korridor,Parent,Korridor,A,,,Natasha le Roux,Tanya Smit,,,,,,,,,,,,,,,,N/A,N/A,,,,
154,Kotra,Parent,Kotra,B,Johannesburg,Gauteng,George Herman,N/A,Benice Fourie,N/A,Patrick van Niekerk,Patric v N,N/A,Melissa Pieters <kotrajhb.melissa@gmail.com>,N/A,N/A,,,N/A,N/A,N/A,N/A,N/A,Discovery Health,N/A,,N/A,10 Jan 2022,
155,Krause Group,,,,,,,Tanya Smit,,,,,,mari@krause.co.za,,mari@scwconsulting.co.za,012 544 1410,"4 Aloe Avenue 
Wallmansthal
Pretoria",,,,,,,,,,,
156,Kritimar Motors (Toyota Humansdorp),Parent,Kritimar Motors (Toyota Humansdorp),B,Port Elizabeth,Eastern Cape,Liesl Nienaber,Shaneley Alberts,N/A,N/A,Kerry Bosch,Liesl Nienaber / Kerry Bosch,01/09/2016,Leoni Visser,N/A,desere@bvdm.co.za,042 295 1104,"27 Voortrekker Road
Humansdorp",Approved,Old Mutual,July,Old Mutual,July,N/A,N/A,,N/A,,
157,Kwa Pele Foods,,,,,,,,,,,,,awie.oberholzer@kpf.co.za ; eddie.alberts@kpf.co.za ; Hanlie Boshoff <hanlie.boshoff@kpf.co.za> ; Chantelle le Roux <chantelle.leroux@kpf.co.za>,,chantelle.leroux@kpf.co.za,041 736 3312,"7 Moffat Road
Bela Bela",,,,,,,,,,,
158,Kwena Minning,Parent,Kwena Minning,C,Johannesburg,Gauteng,Direct,N/A,Benice Fourie,N/A,Madeleen van den Berg,Sam van Zyl ,N/A,N/A,N/A,N/A,,,N/A,N/A,N/A,N/A,N/A,Medihelp,N/A,,,,
159,Khulisani Mining,Parent,Kulesane Mining,A,Durban,Kwazulu Natal,George Herman,N/A,N/A,N/A,Anneline,Madeleen Van Den Berg,01/02/2022,N/A,N/A,,,,,,,,,N/A,N/A,,,,
160,L Designs,Parent,L Designs,A,Port Elizabeth,Eastern Cape,Liesl Nienaber,N/A,Priscilla Abrahams,Priscilla Abrahams,Liesl Nienaber,Liesl Nienaber,N/A,N/A,N/A,N/A,(041) 373-1988 / (083) 600-6172,,N/A,N/A,N/A,N/A,N/A,N/A,Momentum Health4Me,n/a,,,
161,Lamein TV Dienste,Parent,Lamein TV Dienste,A,Bethlehem,Freestate,George Herman,N/A,Lizaan Jacobs,Lizaan Jacobs,Tella Harris,Rayno v V / Tella Harris,N/A,madre@mm-tv.co.za,Madre Haasbroek,N/A,(083) 255-1244 / (071) 881-6300,,N/A,N/A,N/A,N/A,N/A,N/A,Momentum Health4Me,,N/A,,
162,Leadhome,Parent,Leadhome,A,Johannesburg,Gauteng,George Herman,Rene Koekemoer,N/A,N/A,Stian de Witt,Rayno v V / Stian de Witt,01/07/2019,pieter@leadhome.co.za,N/A,N/A,(010) 590 3088,"284 Oak Avenue, Randburg",Unapproved,Discovery,July,N/A,N/A,N/A,N/A,n/a,Yes,,
163,Lekwa Consulting Engineers (Pty) Ltd - Ermelo,Parent,Lekwa Consulting - Ermelo,B,Ermelo,Mpumalanga,George Herman,Rene Koekemoer,N/A,N/A,Rayno van Vuuren,Rayno v V ,01/07/2018,N/A,N/A,N/A,017 819 1985 / 082 784 2855,"67 Fourie Street, Ermelo",Unapproved,Momentum,July,N/A,July,N/A,N/A,,No,,
164,Lemique Consulting,Parent,Lemique Consulting,A,Johannesburg,Gauteng,George Herman,Rene Koekemoer,Benice Fourie,Lizaan Jacobs,Madeleen van den Berg,Sam van Zyl,01/06/2014,N/A,N/A,N/A,(071) 359-4473 / (011) 782-6151,"280 Oak Avenue
Ferndale
Randburg",Unapproved,Momentum,July,N/A,N/A,Bonitas,Momentum Health4Me,,No,,
165,Letseng,,,,,,,,,,,,,cms@letseng.co.ls,,,,,,,,,,,,,,,
166,Liberhof Boedery,Parent,Liberhof Boedery,A,Bethlehem,Freestate,George Herman,Tanya Smit,N/A,N/A,Tella Harris,Rayno v V / Tella Harris,01/10/2018,admin@liberhof.co.za Deidre,N/A,N/A,,,Approved,Old Mutual,July,Old Mutual,July,N/A,N/A,,Yes,,
167,Libri Boekwinkel,Parent,Libri Boekwinkel,B,Bethlehem,Freestate,George Herman,Shaneley Alberts,N/A,N/A,Tella Harris,Duane Nienaber,01/09/2020,Wessel Germishuizen wessel@libri.co.za,N/A,N/A,,,Unapproved,Sanlam,July,Sanlam,July,N/A,N/A,,No,,Yes
168,Lionel Isaacs,Parent,Lionel Isaacs,C,Johannesburg,Gauteng,George Herman,N/A,N/A,Lizaan Jacobs,Madeleen van den Berg,Sam van Zyl ,N/A,N/A,N/A,N/A,(011) 483-3377,"1st Floor
33 Scott Street
Waverley ",N/A,N/A,N/A,N/A,N/A,N/A,Momentum Health4Me,,,14 Apr 2022,
169,Lionel Smit Studio,Parent,Lionel Smit Studio,A,Cape Town,Western Cape,Douw Smit,N/A,N/A,Lizaan Jacobs,Madeleen van den Berg,N/A,N/A,N/A,N/A,N/A,(021) 205-6867,,,,,,,N/A,Momentum Health4Me,,,,
170,Loaded Life,Parent,Loaded Life,C,Pretoria,Gauteng,Natasha le Roux,Rene Koekemoer,N/A,N/A,Patrick van Niekerk,Patrick van Niekerk,01/11/2021,xolani@loadedlife.co.za,N/A,N/A,012 030 1974 / 067 827 7452,"Shop UL03 Atterbury Blvd, Cnr Atterbury & Monitoba, Faerie Glen",Unapproved,AF LIFE,November,N/A,N/A,N/A,N/A,,,,
171,"Lombard, Verster & Pheiffer Inc.",Parent,"Lombard, Verster & Pheiffer Inc.",A,Johannesburg,Gauteng,George Herman,Adri Jansen van Vuuren,N/A,N/A,Citadel,Madeleen,N/A,georg@lvpoptoms.co.za,N/A,N/A,011 894 6459,"Shop 27 Elridge Corner Shopping Centre Corner Elizabeth And, Ridge Rd, Boksburg, Johannesburg, 1459",Unapproved,Sanlam,April,Sanlam,April ,N/A,N/A,,Yes,5 Apr 2022,
172,Lucchini SA,Parent,Lucchini SA,A,Johannesburg,Gauteng,George Herman,Shaneley Alberts,N/A,N/A,Dian de Wet,Johan vd M,01/09/2016,o.engle@lucchinisa.co.za,N/A,o.engle@lucchinisa.co.za,087 806 5371,"3 Stigma Street
Germiston",Approved,Old Mutual,July,Old Mutual,July,N/A,N/A,,Yes,,
173,Luminance Ventures,Parent,Luminance Ventures,A,Johannesburg,Gauteng,George Herman,Adri Jansen van Vuuren,N/A,N/A,Madeleen,Madeleen,01/08/2021,faiza@surteegroup.com,N/A,N/A,,,Unapproved,Discovery,August,Discovery,August,N/A,N/A,,Yes,,
174,Machetto,,,,,,,,,,,,,c.machetto@gmail.com,,,,,,,,,,,,,,,
175,Malan Bore,,,,,,,,,,,,,,,,,,,,,,,,,,,,
176,Malerumo Tswale & Tekos Funeral Parlour,Parent,Malerumo Tswale & Tekos Funeral Parlour,B,Limpopo,Limpopo,George Herman,Tanya Smit,N/A,N/A,Rene Swanepoel,Corrie Calitz,01/08/2021,N/A,N/A,N/A,,,Unapproved,Old Mutual,July,Old Mutual,July,N/A,N/A,,2022,,
182,Maxtec Peripherals,Parent,Maxtec Peripherals,A,Johannesburg,Gauteng,Natasha le Roux,Adri Jansen van Vuuren,N/A,N/A,Bronwyn Botha,Johan vd M / Bronwyn Botha,01/08/2016,visha@maxtec.co.za  ,Morne Nel,morne@maxtec.co.za,,,Approved,Discovery,June,Alex Forbes,June,N/A,N/A,,,,
183,Maxtec Peripherals Cape Town,Branch,Maxtec Peripherals,A,Cape Town,Western Cape,Douw Smit,Shaneley Alberts,N/A,N/A,Bronwyn Botha,Douw Smit,N/A,salomie@maxtec.co.za,N/A,N/A,,,Approved,Discovery,June,Alex Forbes,June,N/A,N/A,,Head office,,
184,Maxtec Peripherals Johannesburg,Branch,Maxtec Peripherals,A,Johannesburg,Gauteng,Natasha le Roux,Shaneley Alberts,N/A,N/A,Bronwyn Botha,Johan vd M / Bronwyn Botha,N/A,visha@maxtec.co.za salomie@maxtec.co.za; morne@maxtec.co.za,N/A,N/A,,,Approved,Discovery,June,Alex Forbes,June,N/A,N/A,,,,
178,Mede8Er,,,,,,,,,,,,,lizels@mede8er.com,,,,,,,,,,,,,,,
179,Meondo,,,,,,,,,,,,,,,,,,,,,,,,,,,,
180,Menzopoint,Parent,Menzopoint,CCC,Port Elizabeth,Eastern Cape,Liesl Nienaber,N/A,N/A,Priscilla Abrahams,N/A,N/A,N/A,N/A,N/A,N/A,(041) 368-1100 / (071) 638-5235,,N/A,N/A,N/A,N/A,N/A,N/A,Momentum Health4Me,,,,
185,Minopex & Quality Labs,Parent,Minopex & Quality Labs,A,Johannesburg,Gauteng,Natasha le Roux,Shaneley Alberts,Yolandi Veira,Priscilla Abrahams,Madeleen van den Berg,Johan vd M,01/11/2015,meisie.ferguson@minopex.com / james.smith@minopex.com / nicolette.uys@minopex.com ,Patrick Metswi,patrick.metswi@minopex.com,,,Approved,Discovery,November,Alex Forbes,November,Discovery Health,Ambledown/ H4H D2D FU,,,,
185,Minopex Shared Services,Branch,Minopex & Quality Labs,A,Johannesburg,Gauteng,Natasha le Roux,Shaneley Alberts,Yolandi Veira,Priscilla Abrahams,Madeleen van den Berg,Johan vd M,N/A,meisie.ferguson@minopex.com / juanita.fourie@minopex.com / Amelia.DuPreez@minopex.com,Patrick Metswi,patrick.metswi@minopex.com,,,N/A,N/A,N/A,N/A,N/A,N/A,Momentum Health4Me,,,,
185,Minopex Students,Branch,Minopex & Quality Labs,A,Johannesburg,Gauteng,Natasha le Roux,Shaneley Alberts,Yolandi Veira,Priscilla Abrahams,Madeleen van den Berg,Johan vd M,N/A,meisie.ferguson@minopex.com / juanita.fourie@minopex.com / Amelia.DuPreez@minopex.com,Patrick Metswi,patrick.metswi@minopex.com,,,N/A,N/A,N/A,N/A,N/A,N/A,Momentum Health4Me,,,,
186,Minopex Technical Advisory,Branch,Minopex & Quality Labs,A,Johannesburg,Gauteng,Natasha le Roux,Shaneley Alberts,Yolandi Veira,Priscilla Abrahams,Madeleen van den Berg,Johan vd M,N/A,meisie.ferguson@minopex.com / juanita.fourie@minopex.com / Amelia.DuPreez@minopex.com,Patrick Metswi,patrick.metswi@minopex.com,,,Unapproved,N/A,N/A,N/A,N/A,N/A,Momentum Health4Me,,,,
187,Molecular bars,,,,,,,,,,,,,,,,,,,,,,,,,,,,
188,Moms Pharmacies,Parent,Moms Pharmacies,A,Middelburg,Mpumalanga,George Herman,Rene Koekemoer,N/A,N/A,,,,N/A,N/A,N/A,Veronica 013 243 2241,,N/A,N/A,N/A,GQM,,N/A,N/A,,,,
189,MTC Breakdown Calle Centre,Parent,MTC Breakdown Calle Centre,B,Harrismith,Freestate,George Herman,Shaneley Alberts,N/A,Priscilla Abrahams,Duane Nienaber,Duane Nienaber,01/12/2019,elize@247truckrepairs.co.za admin1@247truckrepairs.co.za ,,elizebez1@gmail.com,082 560 5693,"4 George Lubbe Street
Hammilton
Bloemfontein",Approved,Old Mutual,July,Old Mutual,July,N/A,Momentum Health4Me,,No,,
190,MMS Holdings,Parent,MMS Holdings,A,Bloemfontein,Freestate,George Herman,Tanya Smit,N/A,N/A,Duane Nienaber,Duane Nienaber,N/A,Diederik,N/A,N/A,,,Unapproved,Sanlam,April,Sanlam,April ,N/A,N/A,,2022,,
191,MRT,Parent,MRT,C,Johannesburg,Gauteng,Direct,N/A,Benice Fourie,N/A,N/A,N/A,N/A,N/A,N/A,N/A,,,N/A,N/A,N/A,N/A,N/A,Discovery Health,N/A,,,,
192,MSM Cellular,Parent,MSM Cellular,CCC,Port Elizabeth,Eastern Cape,Liesl Nienaber,N/A,N/A,Priscilla Abrahams,Liesl Nienaber,Liesl Nienaber,N/A,N/A,N/A,N/A,(083) 533-1110,"10 Sunninghill Avenue
Brentwood Park
Port Elizabeth",N/A,N/A,N/A,N/A,N/A,N/A,Momentum Health4Me,,,,
193,Muvon Services,Parent,Muvon Services,CCC,Johannesburg,Gauteng,Liesl Nienaber,N/A,N/A,Priscilla Abrahams,N/A,N/A,N/A,N/A,N/A,N/A,,,N/A,N/A,N/A,N/A,N/A,N/A,Momentum Health4Me,,,,
194,National Consumer Commission - NCC,Parent,National Consumer Commission - NCC,C,Pretoria,Gauteng,Direct,N/A,Benice Fourie,N/A,Sam van Zyl,Sam van Zyl,N/A,m.leshilo@thencc.org.za,N/A,N/A,,"1 Dr Lategan Road
SABS Campus
Groenkloof 
Pretoria",N/A,N/A,N/A,N/A,N/A,Discovery Health,N/A,,N/a,,
195,New Horizon College,Parent,New Horizon College,C,Bethlehem,Freestate,George Herman,N/A,N/A,Lizaan Jacobs,Rayno van Vuuren,Rayno v V ,N/A,admin@nhc.co.za Ansune,N/A,N/A,,"New Horizon Collage
Bertha Frame Avenue
Harrismith",N/A,N/A,N/A,N/A,N/A,N/A,Momentum Health4Me,,N/A,,
195,New Horizon College Bethlehem,Branch,New Horizon College,C,Bethlehem,Freestate,Direct,N/A,N/A,Lizaan Jacobs,Rayno van Vuuren,Rayno v V ,N/A,admin@nhc.co.za Ansune,N/A,N/A,,"New Horizon Collage
Bertha Frame Avenue
Harrismith",N/A,N/A,N/A,N/A,N/A,N/A,Momentum Health4Me,,,,
195,New Horizon College Harrismith,Branch,New Horizon College,C,Harrismith,Freestate,Direct,N/A,N/A,Lizaan Jacobs,Rayno van Vuuren,Rayno v V ,N/A,admin@nhc.co.za Ansune,N/A,N/A,,"New Horizon Collage
Bertha Frame Avenue
Harrismith",N/A,N/A,N/A,N/A,N/A,N/A,Momentum Health4Me,,,,
195,New Horizon,Branch,New Horizon College,C,Johannesburg,Gauteng,George Herman,N/A,N/A,Lizaan Jacobs,Rayno van Vuuren,Rayno V V,N/A,admin@nhc.co.za Ansune,N/A,N/A,,"New Horizon Collage
Bertha Frame Avenue
Harrismith",N/A,N/A,N/A,N/A,N/A,N/A,Momentum Health4Me,,,,
196,Nichol Steyn and Ass (Extraordinary),Parent,Nichol Steyn and Ass (Extraordinary),C,Johannesburg,Gauteng,Direct,N/A,Benice Fourie,N/A,Madeleen van den Berg,Johan vd M,N/A,michellen@nicholls-steyn.com,N/A,N/A,,,N/A,N/A,N/A,N/A,N/A,Discovery Health,N/A,,,,
197,NICS - New Intergrated Credit Solutions,Parent,NICS - New Intergrated Credit Solutions,B,Pretoria,Gauteng,Natasha le Roux,Shaneley Alberts,Benice Fourie,N/A,Fanus Kruger,Sam van Zyl,08/09/2011,nmtetwa@nics.co.za,N/A,nmtetwa@nics.co.za,012 432 5000,"1068 Arcadia Street
Hatfield 
Pretoria",Approved,Momentum,July,Momentum,July,Discovery Health,N/A,,,,
198,Nkwe Platinium Minning,Parent,Nkwe Platinium Minning,A,Johannesburg,Gauteng,George Herman,N/A,Benice Fourie,Priscilla Abrahams,Madeleen van den Berg,Johan vd M / Bronwyn Botha,N/A,"hr@archieeng.com, Cindy Hoffman",N/A,N/A,,"Building No. 18 - 2nd Floor
Woodlands Office Park
Western Service Road
Woodmead",N/A,N/A,N/A,N/A,N/A,Discovery Health,N/A,,N/A,14 Apr 2022,
199,Notcor (Pty) Ltd,Parent,Notcor (Pty) Ltd,B,Johannesburg,Gauteng,George Herman,Rene Koekemoer,N/A,N/A,Stian de Witt,Rayno v V / Stian de Witt,01/08/2016,Matthew Notnagel - matthew@espa-tech.co.za,N/A,N/A,082 331 5725,"10 Philo Road, Warner House, Wynberg, Sandton",Approved,Capital Alliance,August,Tennant,August,N/A,N/A,n/a,No,,
200,Novo Engergy,Parent,Novo Engergy,C,Johannesburg,Gauteng,George Herman,N/A,N/A,Priscilla Abrahams,Faan Van Biljon,Faan van Biljon,NA,Amukelo.Ndlazi@novoenergy.co.za,N/A,N/A,(081) 358-8364 / (011) 100-0270,,N/A,N/A,N/A,N/A,N/A,N/A,Momentum Health4Me,,N/A,28 Apr 2022,
201,NRB Risk Solutions ,Parent,NRB Risk Solutions ,A,Pretoria,Gauteng,George Herman,Shaneley Alberts,N/A,Lizaan Jacobs,Stian de Witt,Rayno v V / Stian de Witt,01/04/2020,Kaylie Henderson <kaylieh@nrbrisk.co.za>,N/A,N/A,(010) 594-0707,"Ground Floor Building 2
Omnipark
Cnr Sailor Malan Drive & Aerodome Road
Aeroton",Unapproved,Momentum,July,Momentum,July,N/A,Momentum Health4Me,,Yes,,
202,NRB Rental,Parent,NRB Risk Solutions ,B,Johannesburg,Gauteng,George Herman,Shaneley Alberts,N/A,Priscilla Abrahams,Stian de Witt,Rayno v V / Stian de Witt,01/06/2016,pieterd@nrbrentals.co.za,N/A,angelique.wolmarans@nrbrentals.co.za,011 494 6300,"Ground Floor Building 2
Omnipark
Cnr Sailor Malan Drive & Aerodome Road
Aeroton",Unapproved,Momentum,July,Momentum,July,N/A,Momentum Health4Me,,N/A,,
203,Orsmond Aerial Spray Pension/ Provident,Parent,Orsmond Aerial Spray Pension/ Provident,A,Bethlehem,Freestate,George Herman,Tanya van Zyl,N/A,N/A,Tella Harris,Rayno v V / Tella Harris,01/01/2020,"alna@o-a-s.co.za, carl@orsmondaviation.co.za , george@orsmondaviation.co.za , Colin@orsmondaviation.co.za  , pieter@orsmondaviation.co.za",N/A,N/A,(058) 303 5261,,Approved,Momentum,July,Momentum,July,N/A,N/A,Yes,Yes,,
204,OIM Consulting,,,,,,,,,,,,,,,,,,,,,,,,,,,,
205,On-Target,,,,,,,,,,,,,,,,,,,,,,,,,,,,
206,PDI Electrical,Parent,PDI Electrical,A,Port Elizabeth,Eastern Cape,Liesl Nienaber,N/A,N/A,Priscilla Abrahams,Liesl Nienaber,Liesl Nienaber,N/A,Claire Goodwin cgoodwin@algoanet.com,N/A,N/A,,,N/A,N/A,N/A,N/A,N/A,N/A,Momentum Health4Me,,,,
207,Penbro Kelnick - Strike Technologies,Parent,Penbro Kelnick - Strike Technologies,A,Johannesburg,Gauteng,George Herman,Rene Koekemoer,Benice Fourie,Lizaan Jacobs,Kobus van Wyk,Rayno v V/ Kobus van Wyk,01/11/2018,,"joseph@penbro.co.za , ronnie@penbro.co.za, ben@penbro.co.za, prudence@penbro.co.za, hetitia@strike.co.za, kolobee@strike.co.za, joseph@strike.co.za , thabo@strike.co.za, andrej@strike.co.za, deonette@penbro.co.za",N/A,(012) 719-9065,"Unit D5, Kuper Legh Industrial Park
Eskia Mphahlele & Moot Street
Hermanstad
Pretoria West",Unapproved,Liberty,March,Liberty,March,Discovery Health,Momentum Health4Me,,Yes,,
208,Petlabs Pharmaceuticals,Parent,Petlabs Pharmaceuticals,A,Pretoria,Gauteng,Natasha le Roux,Tanya van Zyl,N/A,N/A,Philip Roesch,Philip Roesch,01/11/2021,Gerdus Kemp <gerdus@petlabs.co.za>,joan@petlabs.co.za,"johannes@petlabs.co.za, henrick@nafs.co.za",(012) 000 9710,,Approved,Momentum,July,Momentum,July,N/A,N/A,,,N/a,
209,Phakisa Old Valorem Personnel Services,Parent,Phakisa Old Valorem Personnel Services,CCC,Johannesburg,Gauteng,Sam Van Zyl,N/A,Benice Fourie,N/A,N/A,N/A,N/A,N/A,N/A,,,,N/A,N/A,N/A,N/A,N/A,Discovery Health,N/A,,,,
210,Pharma Valu,Parent,Pharma Valu,B,Pretoria,Gauteng,Natasha le Roux,Tanya Smit,N/A,N/A,Hennie Jonker,Duane Nienaber / JW Jonker,01/01/2019,hr@pharmavalu.co.za,Riaan van Zyl,riaan@pharmavalu.co.za,,,Unapproved,Discovery,November,Discovery,January,N/A,N/A,,,,
211,Pharmaceutical Society of SA,Parent,Pharmaceutical Society of SA,C,Pretoria,Gauteng,Natasha le Roux,N/A,Benice Fourie,N/A,Madeleen van den Berg,Sam van Zyl,N/A,michelle@pharmail.co.za,N/A,N/A,,,N/A,N/A,N/A,N/A,N/A,Discovery Health,N/A,,,N/a,
212,Phree Edge,Parent,Phree Edge,C,Johannesburg,Gauteng,George Herman,N/A,N/A,Lizaan Jacobs,N/A,N/A,N/A,N/A,N/A,N/A,,"Sierra Hotel
265 Main Avenue
Randburg",N/A,N/A,N/A,N/A,N/A,N/A,Momentum Health4Me,,?,,
214,Plastic Depot,Parent,Plastic Depot,A,Cape Town,Western Cape,Douw Smit,Tanya Smit,N/A,Lizaan Jacobs,Carl de Jongh,Carl de Jongh,01/12/2018,account@plasticsdepot.co.za ,N/A,greshen@plasticdepot.co.za,087 808 1501,"10 Evans Street
Alrode South
Johannesburg",Approved,Old Mutual,July,Old Mutual,July,N/A,Momentum Health4Me,,,,
215,Platchro Mining Services,Parent,Platchro Mining Services,A,Rustenburg,North West,Nadine Lewis,Nadine Lewis,Benice Fourie,Priscilla Abrahams,Madeleen van den Berg,Nadine,N/A,Hennie Potgieter-,N/A,N/A,(014)5926556,,,Discovery,July,GTC,July,Discovery Health,N/A,,15/08/2019,,
216,Pirtek Witbank,Parent,Pirtek Witbank,CCC,Witbank,Mpumalanga,Sam Van Zyl,N/A,Benice Fourie,N/A,N/A,N/A,N/A,N/A,N/A,,,,N/A,N/A,N/A,N/A,N/A,Discovery Health,N/A,,,,
217,PMM Project Management & Manpower,Parent,PMM Project Management & Manpower,C,Rustenburg,North West,Nadine Lewis,Adri Jansen van Vuuren,N/A,Lizaan Jacobs,Madeleen van den Berg,Nadine,01/11/2012,Justine Dale - 0828031281,N/A,N/A,(014) 592-4593,"Justin Dale
4 Abelia Lane
Fgeelhout Park",Unapproved,Discovery,November,Tennant,November,N/A,Momentum Health4Me,,,,
218,Power engineering,Parent,Power engineering,C,Pretoria,Gauteng,Direct,N/A,Benice Fourie,N/A,Madeleen van den Berg,Sam van Zyl,N/A,zebeth.vanderwalt@powereng.com,N/A,N/A,,,N/A,N/A,N/A,N/A,N/A,Discovery Health,N/A,,?,,
219,Pretoria High School for Girls,,,,Pretoria,Gauteng,Natasha le Roux,,,,,,,,,,012 430 7341,"949 Park Street
Arcadia
Pretoria",,,,,,,,,,,
220,Proroofgroup,,,,,,,,,,,,,"hmohamed@proroofgroup.co.za
tasneem@proroofgroup.co.za",,,,,,,,,,,,,,,
221,Prostaff,,,,,,,,,,,,,carin@prostaff.co.za,,,,,,,,,,,,,,,
222,Punch Design & Graphic,N/A,N/A,N/A,N/A,N/A,N/A,N/A,N/A,N/A,N/A,N/A,N/A,N/A,N/A,N/A,N/A,N/A,N/A,N/A,N/A,N/A,N/A,N/A,N/A,,,,
223,Purple Moss Nursery School,N/A,N/A,N/A,N/A,N/A,N/A,N/A,N/A,N/A,N/A,N/A,N/A,N/A,N/A,N/A,N/A,N/A,N/A,N/A,N/A,N/A,N/A,N/A,N/A,,,,
224,Qualitylabs,,,,,,,,,,,,,chris.jvvuuren@qualitylabs.co.za,,,,,,,,,,,,,,,
225,"Quicksand, Quick Mix, Transrent, Brick Supplies",Parent,"Quicksand, Quick Mix, Transcend, Brick Supplies",C,Pretoria,Gauteng,Natasha le Roux,Shaneley Alberts,N/A,Lizaan Jacobs,Rayno van Vuuren,Rayno v V,01/08/2018,anmarie@quicksand.org.za,N/A,finances@quicksand.org.za,012 809 0342,"23 Graham Road
Shere
Pretoria",Approved,Old Mutual,July,Old Mutual,July,N/A,Momentum Health4Me,,,,
226,Real Time Management,Parent,Real Time Management,B,Secunda,Mpumalanga,George Herman,Shaneley Alberts,Benice Fourie,Lizaan Jacobs,Stian de Witt,Stian de Witt,01/10/2020,theresa.rtm@gmail.com,N/A,roelien.britz@gmail.com,017 687 1234,"25 Wolhuter Street
Evander",Unapproved,Momentum,July,N/A,N/A,Discovery Health,Momentum Health4Me,,No,,
227,Red Africa Mining / Red Mining South Deep,Parent,Red Africa Mining / Red Mining South Deep,B,Potchefstroom,North West,George Herman,Rene Koekemoer,N/A,N/A,Jacque Davel,Johan vd M / Jacques Davel,01/02/2019,suzanne@redmining.co.za,N/A,N/A,018 001 0429,"14 Spruit Street, Potchefstroom",Funeral Only,Ambledown,February ,Tennant,April ,N/A,N/A,,No,,
228,Redheads Engineering,Parent,Redheads Engineering,C,Johannesburg,Gauteng,Direct,N/A,Benice Fourie,N/A,N/A,N/A,N/A,pia@redheads.co.za,N/A,N/A,,"500 Botterklopper Street
Eenheid C2 - Office@Nature
The Willow
Pretoria",N/A,N/A,N/A,N/A,N/A,Discovery Health,N/A,,?,,
229,Redheads Engineering TECH,Branch,Redheads Engineering,C,Johannesburg,Gauteng,Direct,N/A,Benice Fourie,N/A,N/A,N/A,N/A,N/A,N/A,N/A,,"500 Botterklopper Street
Eenheid C2 - Office@Nature
The Willow
Pretoria",N/A,N/A,N/A,N/A,N/A,Discovery Health,N/A,,,,
230,Readheads TMS Turbomachine Service,Branch,Redheads Engineering,C,Johannesburg,Gauteng,Direct,N/A,Benice Fourie,N/A,N/A,N/A,N/A,N/A,N/A,N/A,,"500 Botterklopper Street
Eenheid C2 - Office@Nature
The Willow
Pretoria",N/A,N/A,N/A,N/A,N/A,Discovery Health,N/A,,,,
231,Refraline,Parent,Refraline,A,Johannesburg,Gauteng,George Herman,Tanya Smit,Benice Fourie,Priscilla Abrahams,Madeleen van den Berg,Sam van Zyl,01/04/2011,N/A,N/A,N/A,(084) 208-2773 / (011) 392-0700,"Bell Street
Meadowdale
Germiston",Approved,Discovery,March Benefit statments only end Aug,Sanlam,March,Discovery Health,Momentum Health4Me,,Yes,,
231,Refraline Johannesburg,Branch,Refraline,A,Johannesburg,Gauteng,George Herman,Tanya Smit,Benice Fourie,Priscilla Abrahams,Madeleen van den Berg,Johan vd M,N/A,"brenda@refraline.com 
jwhite@refraline.com
krosch@refraline.com",N/A,N/A,(084) 208-2773 / (011) 392-0700,"Bell Street
Meadowdale
Germiston",Approved,Discovery,March,Sanlam,March,Discovery Health,Momentum Health4Me,,,,
231,Refraline Pinetown,Branch,Refraline,A,Pinetown,Kwazulu Natal,George Herman,Tanya Smit,Benice Fourie,Priscilla Abrahams,Madeleen van den Berg,Johan vd Mescht,N/A,Cathy Murray,N/A,N/A,084 208 2773 / 0113920700,"Bell Street
Meadowdale
Germiston",Approved,Discovery,March,Sanlam,March,Discovery Health,Momentum Health4Me,,,,
231,Refraline Richardsbay,Branch,Refraline,A,Richardsbay,Kwazulu Natal,George Herman,Tanya Smit,Benice Fourie,Priscilla Abrahams,Madeleen van den Berg,Johan vd Mescht,N/A,Cathy Murray,N/A,N/A,0842082773/0113920700,"Bell Street
Meadowdale
Germiston",Approved,Discovery,March,Sanlam,March,Discovery Health,Momentum Health4Me,,,,
231,Refraline,Branch,Refraline,A,Johannesburg,Gauteng,George Herman,Tanya Smit,N/A,Priscilla Abrahams,Madeleen van den Berg,Johan vd Mescht,N/A,Cathy Murray,N/A,N/A,(084) 208-2773 / (011) 392-0700,"Bell Street
Meadowdale
Germiston",Approved,,,,,Discovery Health,Momentum Health4Me,,,,
232,Regal Fruits,,,,,,,,,,,,,,,,,,,,,,,,,,,,
233,Reinhardt Transport,Parent,Reinhardt Transport,C,Nigel,Mpumalanga,George Herman,Adri Jansen van Vuuren,N/A,N/A,Fanus Kruger,Johan vd M / Dewald Britz,01/09/2011,N/A,N/A,N/A,,,,,,N/A,N/A,N/A,N/A,,Yes,,
233,Reinhardt Transport Nigel,Branch,Reinhardt Transport,A,Nigel,Mpumalanga,George Herman,Adri Jansen van Vuuren,N/A,N/A,Fanus Kruger,Johan vd M / Dewald Britz,N/A,Esme Strauss <esme@reinhardt.co.za>,N/A,N/A,,,Unapproved,Discovery,November,N/A,N/A,N/A,N/A,,,,
233,Reinhardt Transport Rustenburg,Branch,Reinhardt Transport,B,Rustenburg,North West,Nadine Lewis,Adri Jansen van Vuuren,N/A,N/A,Fanus Kruger,Nadine,N/A,Renier Botha/Marieta van der Walt,N/A,N/A,,,Unapproved,Discovery,November,N/A,N/A,N/A,N/A,,,,
234,Remax/Tiador,Parent,Remax/Tiador,B,Port Elizabeth,Eastern Cape,Liesl Nienaber,N/A,N/A,Priscilla Abrahams,Liesl Nienaber,Liesl Nienaber,N/A,"lorrainesales@remaxind.co.za , Esme@remaxind.co.za",N/A,N/A,(041) 368-1100 / (071) 638-5235,"Circular Drive
Lorraine",N/A,N/A,N/A,N/A,N/A,N/A,Momentum Health4Me,,,,
235,Robday Mining,Parent,Robday Mining,B,Rustenburg,North West,Nadine Lewis,Nadine Lewis,N/A,N/A,Brenda Potgieter,Nadine,N/A,Shantel Bernard,N/A,N/A,,,N/A,N/A,N/A,N/A,N/A,N/A,N/A,,08/09/2018,,
236,Ross Verification Services,Parent,Ross Verification Services,B,Heidelberg,Gauteng,George Herman,Rene Koekemoer,N/A,N/A,Madeleen van den Berg,Sam van Zyl,01/06/2019,"francois@rosss.co.za , Charlene@rosss.co.za , Office@rosss.co.za",N/A,N/A,012  343 6869,,Funeral Only,Safrican,June,Tennant,June,N/A,N/A,,No,,
237,RSC Consulting Services ,Parent,RSC Consulting Services ,A,Johannesburg,Gauteng,Sam Van Zyl,Tanya Smit,Benice Fourie,Priscilla Abrahams,Bennie van der Merwe,Madeleen,01/04/2021,Lizelle@rscconsulting.co.za                                           ,berty@rscconsulting.co.za,N/A,(011) 453-0670,"Unit 8 York House
Tybalt Place , Waterfall Park
Bekker Road
Vorna Valley
Midrand",Approved,Old Mutual,July ,Old Mutual,July,Discovery Health,Momentum Health4Me,,,,
237,RSC Consulting Services 1,Branch,RSC Consulting Services ,A,Johannesburg,Gauteng,Sam Van Zyl,Tanya Smit,Benice Fourie,Priscilla Abrahams,Bennie van der Merwe,Madeleen,01/04/2021,N/A,berty@rscconsulting.co.za,N/A,011 453 0670,"Unit 8 York House
Tybalt Place , Waterfall Park
Bekker Road
Vorna Valley
Midrand",Unapproved,Discovery,,,,Discovery Health,Momentum Health4Me,,,,
237,RSC Consulting Services 2,Branch,RSC Consulting Services ,A,Johannesburg,Gauteng,Sam Van Zyl,Tanya Smit,Benice Fourie,Priscilla Abrahams,Bennie van der Merwe,Madeleen,01/04/2021,N/A,berty@rscconsulting.co.za,N/A,011 453 0670,"Unit 8 York House
Tybalt Place , Waterfall Park
Bekker Road
Vorna Valley
Midrand",Approved,Alexander Forbes,July,Alexander Forbes,July,Discovery Health,Momentum Health4Me,,,,
238,RSM Bande  RSM Tyres (Pty) Ltd,Parent,RSM Bande     RSM Tyres (Pty) Ltd,C,Rustenburg,North West,Nadine Lewis,Rene Koekemoer,Benice Fourie,N/A,Fanus Kruger,Nadine,01/09/2010,Gerhard Malan,gerhard@rsmgroup.co.za,N/A,087 980 0000 / 014 592 9297,"55 Zendeling Street, Rustenburg",Approved,Capital Alliance,October,Tennant,October,Discovery Health,N/A,,,,
239,RSVP Pizza,Parent,RSVP Pizza,B,Polokwane,Limpopo,George Herman,Tanya van Zyl,N/A,N/A,Corrie Calitz,Corrie Calitz ,01/07/2021,N/A,N/A,ppc@romanspizza.co.za,(015) 275 7633,,Approved,Momentum,July,Momentum,July,N/A,N/A,,2022,,
240,Rust-Oleum South Africa (Spraymate),Parent,Rust-Oleum South Africa (Spraymate),A,Vereeniging,North West,George Herman,Tanya Smit,N/A,N/A,Duane Nienaber,Duane Nienaber,01/10/2021,Paul Keys paul.keys@rustoleum.co.za,Wendy Russell <wendy.russell@rustoleum.co.za>,Monique Ekermans - Rustoleum <monique.ekermans@rustoleum.co.za>,"Office: 016 365
5120 | Cell: 076 117 3290",,Approved,Old Mutual,July,Old Mutual,July,N/A,NA,,New,,
241,Ruthven Burger Kraft Inc (RBK),Parent,Ruthven Burger Kraft Inc (RBK),C,Johannesburg,Gauteng,Natasha le Roux,Tanya Smit,N/A,N/A,Madeleen van den Berg,Madeleen,01/03/2021,ben@rbkinc.co.za,N/A,N/A,,,,Old Mutual,July ,Old Mutual,July,N/A,N/A,,,,
242,RMG Forensics,Parent,RMG Forensics,A,Pretoria,Gauteng,Natasha le Roux,Chantal Broeke,Benice Fourie,,,,01/20/2022,N/A,N/A,,076 123 6204,"Unit 17
Lambert Street 
Morningside
Durban",Unapproved,Discovery,,Discovery,,N/A,N/A,,,,
243,Sablegroup,,,,,,,,,,,,,leonie.stonebridge@sablegroup.co.za,,,,,,,,,,,,,,,
244,Safilo,Parent,Safilo,B,Johannesburg,Gauteng,Natasha le Roux,Shaneley Alberts,Benice Fourie,N/A,Madeleen van den Berg,Johan vd M / Zander de Bruin,01/08/2012,Mariska.King@safilo.com,Garth Olivier,"Garth.Olivier@safilo.com
Mariska.King@safilo.com",011 548 9600,"Witkoppen Road
Magaliessig
Sandton",Unapproved,Discovery,August,Momentum,July,Discovery Health,N/A,,,,
245,Sand River Security / SARPHC Properties,Parent,Sand River Security / SARPHC Properties,A,Bela-Bela,Mpumalanga,George Herman,Tanya van Zyl,N/A,N/A,Madeleen van den Berg,Sam van Zyl,01/12/2014,N/A,N/A,N/A,083 805 9260,,Approved,Momentum,July,Momentum,July,N/A,N/A,,Yes,,
246,Sastel Packaging,Parent,Sastel Packaging,A,Pretoria,Gauteng,Natasha le Roux,Shaneley Alberts,N/A,N/A,Stian de Witt,Stian de Witt,01/04/2022,N/A,N/A,admin@sastel.co.za,012-072-0111,"292 Burger Street 
Pretoria North",Unapproved,Old Mutual,Old Mutual,Old Mutual,July,N/A,N/A,,,,
247,Satib - Safari Tourism Internation Brokers,Parent,Satib - Safari Tourism Internation Brokers,C,Durban,Kwazulu Natal,Natasha le Roux,N/A,Benice Fourie,N/A,Madeleen van den Berg,Johan vd Mescht,N/A,jayshreen@firstequity.co.za,N/A,N/A,,,N/A,N/A,N/A,N/A,N/A,Discovery Health,N/A,,,N/a,
248,Scope Oils/Redgerick Agencies,Parent,Scope Oils/Redgerick Agencies,C,Port Elizabeth,Eastern Cape,Liesl Nienaber,N/A,N/A,Priscilla Abrahams,Liesl Nienaber,Liesl Nienaber,N/A,N/A,N/A,N/A,(076) 275-7551,,N/A,N/A,N/A,N/A,N/A,N/A,Momentum Health4Me,,,,
249,SCP - Optimal Supply Chain Partner,Parent,SCP - Supply Chain Partner,C,Pretoria,Gauteng,Natasha le Roux,Adri Jansen van Vuuren,Benice Fourie,N/A,Herman Visser,Rayno v V / Herman Visser,N/A,tanja.ferreira@supplychainpartner.com,Schalk Burger,schalk.burger@supplychainpartner.com,,"Unit 1 Central Park
13 Esdoring Street
Highveld Techno Park
Centurion",,Discovery,September,Alex Forbes,September,Discovery Health,N/A,,,,
250,Screenex Manufacturing,Parent,Screenex Manufacturing,CCC,Johannesburg,Gauteng,Sam van Zyl,N/A,Benice Fourie,N/A,N/A,N/A,N/a,constance.moeng@screenex.co.za,N/A,N/A,(011) 864-2773,,N/A,N/A,N/A,N/A,N/A,N/A,Momentum Health4Me,,,,
251,Scubed (Petros),Parent,Scubed,B,Pretoria,Gauteng,Natasha le Roux,Adri Jansen van Vuuren,N/A,N/A,Madeleen van den Berg,Rayno v V / Francois le Clus,01/03/2018,annetjie@scubed.co.za,Adri Stimmie,adri@scubed.co.za;,,"Cnr Von Willich & Leonie Street
Centurion",,Discovery,March,Alex Forbes,March,N/A,N/A,Yes,,,
252,SDV Pharmacutical,Parent,SDV Pharmacutical,C,Johannesburg,Gauteng,Direct,N/A,Benice Fourie,N/A,Madeleen van den Berg,Sam van Zyl,N/A,N/A,N/A,,,,N/A,N/A,N/A,N/A,N/A,Discovery Health,N/A,,,,
253,Sebetsa Projects,Parent,Sebetsa Projects,C,Rustenburg,North West,Nadine Lewis,Nadine Lewis,N/A,N/A,Brenda Potgieter,Nadine,N/A,Retha Nortje,N/A,,,,,Momentum,July,Momentum,July,N/A,N/A,,N/A,,
254,Sebetsa Trading ,Parent,Sebetsa Trading ,A,Rustenburg,North West,Nadine Lewis,Nadine Lewis,N/A,N/A,Brenda Potgieter,Nadine,N/A,Retha Nortje,N/A,,,,,Momentum,July,Momentum,July,N/A,N/A,,N/A,,
255,SE Industries,Parent,SE Industries,CCC,Port Elizabeth,Eastern Cape,Liesl Nienaber,N/A,N/A,Priscilla Abrahams,N/A,N/A,N/A,N/A,N/A,N/A,(041) 372-1064,"Hunters Retreat
Port Elizabeth",N/A,N/A,N/A,N/A,N/A,N/A,Momentum Health4Me,,,,
256,SHE Sport,Parent,SHE Sport,C,Rustenburg,North West,Nadine Lewis,Nadine Lewis,N/A,N/A,Brenda Potgieter,Nadine,N/A,N/A,N/A,,,,N/A,N/A,N/A,N/A,N/A,N/A,N/A,,,,
257,Shell Ultra City Kroonstad,Parent,Shell Ultra City Kroonstad,B,Kroonstad,North West,George Herman,Rene Koekemoer,Benice Fourie,N/A,Herman Steyn,N/A,01/08/2021,,N/A,N/A,,,Unapproved,Discovery,June,N/A,N/A,Discovery Health,N/A,,2022,,
258,Skin PHD,,,,,,,,,,,,,"janis@Skinphd.co.za
diana@Skinphd.co.za
theresa@Skinphd.co.za
fin@Skinphd.co.za - Brooklyn
bmokgatl@gmail.com - Greenstone
jeancrossing@Skinphd.co.za - Jean Crossing
lireen@Skinphd.co.za' - Olympus 
reneesha@Skinphd.co.za' - Waterfall Corner
eldovillage@skinphd.co.za - Eldovillage
carina@skinphd.co.za - Eldovillage
zambesi@skinphd.co.za - Lynnwood
Keryn@skinphdwc.co.za - Plattekloof
chris@skinphd.co.za - Westpoint",N/A,N/A,,,,,,,,,,,,,
259,Smoke CI,Parent,Smoke CI,C,Johannesburg,Gauteng,Direct,N/A,N/A,Lizaan Jacobs,Madeleen van den Berg,Johan vd M,N/A,laurenv@smokeci.com,N/A,N/A,(083) 258-3956 / (011) 462-9881,"Ash House Olivedale Office Park
Cnr Olive Street and Lima Road
Randburg",N/A,N/A,N/A,N/A,N/A,N/A,Momentum Health4Me,,N/A,,
260,Smokey Mountain Spur,Parent,Smokey Mountain Spur,C,Brits,North West,Nadine Lewis,Rene Koekemoer,N/A,N/A,Madeleen van den Berg,Natasha,01/01/2012,Floris Smith pinecreek@mweb.co.za,N/A,N/A,N/A,N/A,N/A,Momentum,July,N/A,N/A,N/A,N/A,,,,
261,SSG Consulting,Parent,SSG Consulting,C,Pretoria,Gauteng,Natasha le Roux,Adri Jansen van Vuuren,Benice Fourie,Lizaan Jacobs,Madeleen van den Berg,Patric v N,01/03/2019,stephany.geremia@ssgconsulting.co.za,Lizl Oelofse,lizl.oelofse@ssgconsulting.co.za,(012) 345-6779,"830 Petrus Street
Rietvalleirand
Pretoria",Unapproved,Discovery,March,Alex Forbes,March,Discovery Health,Momentum Health4Me,,,N/a,
262,SSG Consulting Exxaro,Branch,SSG Consulting,C,Pretoria,Gauteng,Natasha le Roux,Adri Jansen van Vuuren,Benice Fourie,N/A,Madeleen van den Berg,Patric v N,N/A,pieter.kruger@ssgconsulting.co.za; lizl.oelofse@ssgconsulting.co.za,,N/A,123456779,"830 Petrus Street
Rietvalleirand
Pretoria",Unapproved,Discovery,March,Alex Forbes,March,Discovery Health,Momentum Health4Me,,,,
263,SSG Consulting Graceland,Branch,SSG Consulting,C,Pretoria,Gauteng,Natasha le Roux,Adri Jansen van Vuuren,Benice Fourie,N/A,Madeleen van den Berg,Patric v N,N/A,pieter.kruger@ssgconsulting.co.za; lizl.oelofse@ssgconsulting.co.za,,N/A,123456779,"830 Petrus Street
Rietvalleirand
Pretoria",Unapproved,Discovery,March,Alex Forbes,March,Discovery Health,Momentum Health4Me,,,,
264,SSG Consulting Lephalale,Branch,SSG Consulting,C,Lephalale,Limpopo,Natasha le Roux,Adri Jansen van Vuuren,Benice Fourie,N/A,Madeleen van den Berg,Sam van Zyl,N/A,pieter.kruger@ssgconsulting.co.za; lizl.oelofse@ssgconsulting.co.za,,N/A,123456779,"830 Petrus Street
Rietvalleirand
Pretoria",Unapproved,Discovery,March,Alex Forbes,March,Discovery Health,Momentum Health4Me,,,,
265,SSG Consulting,Branch,SSG Consulting,C,Pretoria,Gauteng,Natasha le Roux,Adri Jansen van Vuuren,Benice Fourie,Lizaan Jacobs,Madeleen van den Berg,Sam van Zyl,N/A,pieter.kruger@ssgconsulting.co.za; lizl.oelofse@ssgconsulting.co.za,,N/A,(012) 345-6779,"830 Petrus Street
Rietvalleirand
Pretoria",Unapproved,Discovery,March,Alex Forbes,March,Discovery Health,Momentum Health4Me,,,,
266,St Air Projects & Engineering,Parent,St Air Projects & Engineering,B,Centurion,Gauteng,Natasha le Roux,Rene Koekemoer,N/A,N/A,Ben Nel,N/A,01/06/2022,N/A,N/A,,014 592 3152,"1037 Frederik Ave, Eldoraigne, Centurion",Unapproved,Discovery,June,N/A,N/A,N/A,N/A,Yes,,,
267,St Augustine's,Parent,St Augustine's,C,Rustenburg,North West,Nadine Lewis,Shaneley Alberts,N/A,Priscilla Abrahams,Fanus Kruger,Nadine,01/10/2011,600101096staugustine@gmail.com,N/A,600101096staugustine@gmail.com,(014) 592-3152,143 Leydstreet Rustenburg,Unapproved,Momentum,July,Momentum,July,N/A,Momentum Health4Me,,,,
268,St Marks Congregational Church,Parent,St Marks,B,Port Elizabeth,Eastern Cape,LIesl Nienaber,Tanya van Zyl,N/A,Priscilla Abrahams,Liesl Nienaber,Natasha,01/01/2022,sanchiavdm@stmarks.org.za,N/A,N/A,(041) 360-6641,,Approved,Momentum,July,Momentum,July,N/A,Momentum Health4Me,,,,
269,St Marks Community School,Branch,St Marks,B,Port Elizabeth,Eastern Cape,LIesl Nienaber,Tanya van Zyl,N/A,Priscilla Abrahams,Liesl Nienaber,Natasha,01/02/2022,sanchiavdm@stmarks.org.za,N/A,N/A,(041) 360-6641,,Approved,Momentum,July,Momentum,July,N/A,Momentum Health4Me,,,,
270,Stadium Fast Foods,Parent,Stadium Fast Foods,C,Bloemfontein,Freestate,Direct,N/A,N/A,Lizaan Jacobs,N/A,N/A,N/A,N/A,N/A,N/A,(051) 430-7878,,N/A,N/A,N/A,N/A,N/A,N/A,Momentum Health4Me,,N/A,,
271,Stature Marketing,Parent,Stature Marketing,C,Rustenburg,North West,Nadine Lewis,Rene Koekemoer,N/A,N/A,,Nadine,01/03/2011,N/A,N/A,N/A,(014) 592 9297,"210 A Joubert Street, Rustenburg",Unapproved,Momentum,July,N/A,July,N/A,N/A,,,,
272,Stoncor ,Parent,Stoncor ,B,Midrand,Gauteng,Natasha le Roux,N/A,Tracey Ellery,N/A,Duane Nienaber,Duane Nienaber,N/A,Itumeleng.Mogotsi@stoncor.com ,Karessa Burghartswieser,Karessab@stoncor.com,,"8 Midrand Industrial Park
Cresset Road
Edenvale",N/A,N/A,N/A,N/A,N/A,Discovery Health,N/A,,,N/a,
273,Suburban Services,Parent,Suburban Services,A,Johannesburg,Gauteng,George Herman,Adri Jansen van Vuuren,N/A,N/A,Madeleen van den Berg,Johan vd M,01/12/2018,suzannelove@suburbanserv.co.za,N/A,N/A,,,Approved,Discovery,December,Alex Forbes,December,N/A,N/A,,Yes,,
,Sunfox 181 cc Hoedspruit Spar & Tops,,,,,,,Shaneley Alberts,,,,,,,,serah.vdsandt@attooh.co.za,015 793 2305,"53B Koedoe Street
Hoedspruit",,,,,,,,,,,
274,Suntropica,Parent,Suntropica,C,Midrand,Gauteng,Natasha le Roux,Rene Koekemoer,N/A,N/A,Theuns de Mont,Rayno v V / Theuns de Mont,01/06/2011,ravisha.rameshwur@wol.co.za,N/A,N/A,011 315-0479,,Approved,Capital Alliance,June,Tennant,June,N/A,N/A,,,,
275,SP Asset Solutions,,,,,,,,,,,,,Musa.Thabathi@talkintelligence.co.uk,,,,,,,,,,,,,,,
276,Sparkling Water,,,,,,,,,,,,,denver@sparklingwaters.co.za,,,,,,,,,,,,,,,
277,Spraymate,,,,,,,,,,,,,,,,,,,,,,,,,,,,
278,SPOC,Parent,SPOC,C,Pretoria,Gauteng,Natasha le Roux,N/A,N/A,Lizaan Jacobs,N/A,N/A,N/A,willie@spocsa.co.za,N/A,N/A,(082) 452-7412,"Inkwazi Office Park - Block E
1249 Embankment Road
Centurion",N/A,N/A,N/A,N/A,N/A,N/A,Momentum Health4Me,,,N/a,
279,Super Rock Drills,Parent,Super Rock Drills,C,Pretoria,Gauteng,Direct,N/A,Benice Fourie,N/A,Vic Grobler,Patric v N / Vic Grobler,N/A,vic.grobler@attooh.co.za,N/A,N/A,,,N/A,N/A,N/A,N/A,N/A,Bonitas,N/A,,N/a,,
280,Supply chain partner,,,,,,,,,,,,,henk.kruger@supplychainpartner.com,N/A,N/A,,,,,,,,,,,,,
281,Sureswipe,Parent,Sureswipe,A,Johannesburg,Gauteng,Natasha le Roux,Adri Jansen van Vuuren,N/A,N/A,Nilesh Mohalall,Ask Natasha for split between Nilesh & Craig,01/04/2019,amanda.nqato@sureswipe.co.za,Owen Dzwairo,owen@sureswipe.co.za,,,Unapproved,Discovery,May,N/A,N/A,N/A,N/A,,,,
282,Surtee Group,Parent,Surtee Group,A,Johannesburg,Gauteng,George Herman,Adri Jansen van Vuuren,Benice Fourie,N/A,Madeleen van den Berg,Johan vd M / Yusaf Chopdat,01/09/2018,"muhammad@surteegroup.com
yusuf@surteegroup.com",N/A,N/A,,,Unapproved,Discovery,September,Discovery,September,N/A,N/A,,Yes,,
283,Suzlon,Parent,Suzlon,C,Port Elizabeth,Eastern Cape,Liesl Nienaber,Tanya van Zyl,Benice Fourie,N/A,Stian de Witt ,Rayno v V / Stian de Witt,01/09/2017,Siebert Jacob Noeth <siebert.noeth@suzlon.com>,Birgitte Hansen <birgitte.hansen@suzlon.com>,Birgitte Hansen <birgitte.hansen@suzlon.com>,071 743 8147,"15 Scallan Street
Somerset East",Unapproved,Discovery,October ,Momentum,July,Discovery Health,N/A,,N/A,,
284,TADI,,,,,,,,,,,,,,,,,,,,,,,,,,,,
285,Talk Inifinity,Parent,Talk Inifinity,C,Johannesburg,Gauteng,Direct,N/A,N/A,Lizaan Jacobs,N/A,N/A,N/A,N/A,N/A,N/A,(079) 755-4919,"Constantia Kloof Park
Bridgeview House - 1st Floor
Weltevredenpark",N/A,N/A,N/A,N/A,N/A,N/A,Momentum Health4Me,,,,
286,TCG Project Management PTY LTD,Parent,TCG Project Management PTY LTD,C,Johannesburg,Gauteng,Direct,N/A,Benice Fourie,N/A,N/A,N/A,N/A,N/A,N/A,N/A,,"Office 039, 1st Floor
Regus Southdowns Ridge Office Paek
Cnr John Vorster & Nellmapius Drive
Irene",N/A,N/A,N/A,N/A,N/A,Discovery Health,N/A,,,,
287,Technilube,Parent,Technilube,C,Johannesburg,Gauteng,Direct,N/A,Benice Fourie,N/A,Madeleen van den Berg,Sam van Zyl,N/A,Roberta Barke (roberta@technilube.co.za),N/A,N/A,,,N/A,N/A,N/A,N/A,N/A,Discovery Health,N/A,,,,
288,The Franchise Co,,,,,,,,,,,,,N/A,N/A,N/A,,,,,,,,,,,,,
289,The Magic Company,Parent,The Magic Company,C,Johannesburg,Gauteng,Direct,N/A,Benice Fourie,N/A,Steve Mangold,Sam van Zyl,N/A,warren@magiccompany.co.za,N/A,N/A,,,N/A,N/A,N/A,N/A,N/A,Discovery Health,N/A,,N/A,,
290,The Regency Group,Parent,The Regency Group,B,Rustenburg,North West,Nadine Lewis,Nadine Lewis,N/A,N/A,Brenda Potgieter,Nadine,N/A,Noma Bolane,N/A,,,,,Old Mutual,July,Alex Forbes,July,N/A,N/A,,,,
291,Top Carperts,Parent,Top Carperts,B,Bethlehem,Freestate,George Herman,Rene Koekemoer,N/A,Lizaan Jacobs,Tella Harris,Rayno v V / Tella Harris,01/07/2018,<admin@topcarpetsbethlehem.com>,N/A,N/A,(058) 303-4924 / (012) 362-0576,"Shop 4 Java Centre
287 Lynwood Road
Brooklyn
Pretoria",,Capital Alliance,July,Tennant,July,N/A,Momentum Health4Me,n/a,October,,
292,Top Carperts & Floors Bethlehem,Branch,Top Carperts,B,Bethlehem,Freestate,George Herman,Rene Koekemoer,N/A,Lizaan Jacobs,Tella Harris,Rayno v V / Tella Harris,01/07/2018,N/A,N/A,N/A,(058) 303-4924  ,"Shop 4 Java Centre
287 Lynwood Road
Brooklyn
Pretoria",          funeral only,Safrican,July,N/A,N/A,N/A,Momentum Health4Me,,,,
293,Top Carpets & Floors Hatfield,Branch,Top Carperts,B,Pretoria,Gauteng,George Herman,Rene Koekemoer,N/A,Lizaan Jacobs,Tella Harris,Rayno v V / Tella Harris,01/07/2018,N/A,N/A,N/A,(012) 362-0576,"Shop 4 Java Centre
287 Lynwood Road
Brooklyn
Pretoria",,,,,,N/A,Momentum Health4Me,,,,
294,Torque Tools,,,,,,,,,,,,,david@torquetool.co.za,N/A,N/A,,,,,,,,,,,,,
295,TRAC - Trans African Concessions ,Parent,TRAC - Trans African Concessions ,A,Midrand,Gauteng,Natasha le Roux,Tanya Smit,Tracey Ellery,N/A,Madeleen van den Berg,Sam van Zyl/Rene du Preez,01/07/2016,AFourie@tracn4.co.za,Cathy Naidoo,cnaidoo@tracn4.co.za,011 805 8788,"Building A
69 Regency Drive
Route 21 Corporate Park
Irene",Approved,Discovery,July,Alex Forbes,July,Discovery Health,N/A,,,31 Mar 2022,
296,Tradecore Holdings (Amandla Steel/Blue Label/Tradecore Steel),Parent,Tradecore,A,Germiston,Gauteng,George Herman,Shaneley Alberts,N/A,N/A,Madeleen van den Berg,Sam van Zyl,01/04/2019,N/A,N/A,N/A,,,Unapproved,Old Mutual,July,Old Mutual,July,N/A,N/A,,Yes,15 Feb 2022,
297,Transvaal Gold Mining Estates Ltd,Parent,Transvaal Gold Mining Estates Ltd,B,Johannesburg,Gauteng,George Herman,Shaneley Alberts,N/A,N/A,Patrick van Niekerk,Patrick van Niekerk,01/10/2020,N/A,N/A,chantellj@tgme.co.za,021 863 2691,"13 Enslin Street
Suider Paarl
Paarl
Western Cape",,Momentum,July,Momentum,July,N/A,N/A,,N/A,,
298,Trilink ,Parent,Trilink ,A,Port Elizabeth,Eastern Cape,Liesl Nienaber,N/A,N/A,Priscilla Abrahams,Liesl Nienaber,Liesl Nienaber,N/A,Marino Gherbavaz marino@trilinkd.co.za,N/A,N/A,041 365 4382,"88 Pichaning Street
Newton Park
Port Elizabeth",N/A,N/A,N/A,N/A,N/A,N/A,Momentum Health4Me,,,,
299,Triple Advanced Finance (TADI),Parent,Triple Advanced Finance (TADI),A,Johannesburg,Gauteng,George Herman,Adri Jansen van Vuuren,N/A,Lizaan Jacobs,Bennie van der Merwe,Madeleen,01/06/2021,retha@tadi.co.za,N/A,N/A,(012) 111-1232 / (082) 823-0059,,,Discovery,August,NA,N/A,N/A,Momentum Health4Me,,,13 Apr 2022 ( wellness day),
300,Triple Advanced Investments,Branch,Triple Advanced Investments,C,Johannesburg,Gauteng,Direct,N/A,N/A,Lizaan Jacobs,N/A,N/A,N/A,retha@tadi.co.za,N/A,N/A,(012) 111-1232 / (082) 823-0059,,,Discovery,September,NA,N/A,N/A,Momentum Health4Me,,,,
301,Tsebane Molaba Attorneys,Parent,Tsebane Molaba Attorneys,C,Pretoria,Gauteng,Natasha le Roux,Shaneley Alberts,N/A,N/A,Kwanele Sibanda,Patric v N / Kwanele Sibanda,01/04/2016,nakas@molabaattorneys.co.za ,Mr Molaba,"kotishim@molabaattorneys.co.za
gugu@preciousaccountants.co.za",012 328 5477,"806 Stanza Bopapa Street 
Eastwood
Pretoria",Unapproved,Momentum,July,Momentum,July,N/A,N/A,,,,
,Tuningi Safari Lodge,,Tuningi Safari Lodge,,,,,,,,,,,,futureb69@gmail.com,almarie@seasonsinafrica.com,(082) 853 9100 ,"Madikwe Game Reserve 
Madikwe",,,,,,,,,,,
302,Tyancon Construction,,,,,,,,,,,,,,,,,"22 Ophir Booysens Road
Booysens",,,,,,,,,,,
303,Tyto,,,,,,,,,,,,,gareth@tyto.co.za,,,,,,,,,,,,,,,
304,Ultimate Fire ,,,,,,,,,,,,,,,,,,,,,,,,,,,,
305,Ultimate Transport Solutions,Parent,Ultimate Transport Solutions,A,Lydenburg,Mpumalanga,George Herman,Adri Jansen van Vuuren,N/A,N/A,Leon Berg,Leon Berg,01/04/2022,utsolution@vodamail.co.za,N/A,N/A,(011) 811 1680/(079) 522 0420,,Approved,Discovery,April,Alex Forbes,April,N/A,N/A,,,,
306,UniQ Benefit Solutions (business partner Agile Capital),Parent,UniQ Benefit Solutions (business partner Agile Capital),A,,,Sam van Zyl,Tanya Smit,Cassie Nel,Priscilla Abrahams,Madeleen van den Berg,N/A,N/A,Trevor Fowler ,helio@adcorpgroup.com,N/A,(011) 745-9044 / (083) 519-2676,,,Discovery,March,N/A,N/A,N/A,Momentum Health4Me,,,,
307,Universal Power,Parent,Universal Power,B,Port Elizabeth,Eastern Cape,Liesl Nienaber,N/A,N/A,Priscilla Abrahams,Madeleen van den Berg,Liesl Nienaber,N/A,kay@universalpower.co.za,N/A,N/A,(041) 581-5390,"140 Villiers Road
Walmer 
Port Elizabeth",N/A,N/A,N/A,N/A,N/A,N/A,Momentum Health4Me,,,,
308,USN & Globepak,Parent,USN & Globepak,A,Pretoria,Gauteng,Natasha le Roux,Shaneley Alberts,N/A,N/A,Madeleen van den Berg,Rayno v V / Andre Rheeders,01/03/2018,"Natashai@usn.co.za, douglas@globepak.co.za ,emile@globepak.co.za
",Douglas De Bruyn ,"douglas@globepak.co.za
natashai@usn.co.za",086 111 1876,"Unit 4 Loulardia Logistics Park
Cnr Nellmapius Road & Olievenhoutbosch Avenue
Centurion",,Momentum,July,Momentum,July,N/A,N/A,,,,
309,Van Der Walt Motor Holdings ,Parent,Van Der Walt Motor Holdings ,B,Rustenburg,North West,Nadine Lewis,Nadine Lewis,N/A,N/A,Brenda Potgieter,Nadine,N/A,N/A,N/A,N/A,,,N/A,N/A,N/A,N/A,N/A,N/A,N/A,,N/A,,
309,Van Der Walt Motor Holdings - BH Auto,Branch,Van Der Walt Motor Holdings - BH Auto,B,Rustenburg,North West,Nadine Lewis,Nadine Lewis,N/A,N/A,Brenda Potgieter,Nadine,N/A,N/A,N/A,N/A,,,N/A,N/A,N/A,N/A,N/A,N/A,N/A,,N/A,,
309,Van Der Walt Motor Holdings - InspectACar,Branch,Van Der Walt Motor Holdings - InspectACar,B,Rustenburg,North West,Nadine Lewis,Nadine Lewis,N/A,N/A,Brenda Potgieter,Nadine,N/A,N/A,N/A,N/A,,,N/A,N/A,N/A,N/A,N/A,N/A,N/A,,N/A,,
309,Van Der Walt Motor Holdings - KIA Rustenburg,Branch,Van Der Walt Motor Holdings - KIA Rustenburg,B,Rustenburg,North West,Nadine Lewis,Nadine Lewis,N/A,N/A,Brenda Potgieter,Nadine,N/A,N/A,N/A,N/A,,,N/A,N/A,N/A,N/A,N/A,N/A,N/A,,,,
309,Van Der Walt Motor Holdings - Nissan Mossel Bay,Branch,Van Der Walt Motor Holdings - Nissan Mossel Bay,B,Rustenburg,North West,Nadine Lewis,Nadine Lewis,N/A,N/A,Brenda Potgieter,Nadine,N/A,N/A,N/A,N/A,,,N/A,N/A,N/A,N/A,N/A,N/A,N/A,,,,
310,VSB PP1 Van Staden & Booysen ,Parent,Van Staden & Booysen,A,Johannesburg,Gauteng,George Herman,Tanya van Zyl,N/A,Lizaan Jacobs,Philip Roesch,Rayno v V / Philip Roesch,01/09/2018,Sherene@vsb.co.za,N/A,N/A,(011) 867 - 5723,"4 Ibis Place
Meyersdal
Alberton",Unapproved,Momentum,July,Momentum,July,N/A,Momentum Health4Me,,Yes,,
310,VSB PP2 Gottini Lake (Lala Salama ),Branch,Van Staden & Booysen,A,Johannesburg,Gauteng,George Herman,Tanya van Zyl,N/A,Lizaan Jacobs,Philip Roesch,Rayno v V / Philip Roesch,01/09/2018,N/A,N/A,N/A,(011) 867 - 5723,"4 Ibis Place
Meyersdal
Alberton",Unapproved,Momentum,July,Momentum,July,N/A,Momentum Health4Me,,,,
310,VSB PP4 VSB Inc - Potch (Klopper Deenanath Atoorneys),Branch,Van Staden & Booysen,A,Potchefstroom,Gauteng,George Herman,Tanya van Zyl,N/A,Lizaan Jacobs,Philip Roesch,Rayno v V / Philip Roesch,01/09/2018,N/A,N/A,N/A,(018) 294-4418,"4 Ibis Place
Meyersdal
Alberton",Unapproved,Momentum,July,Momentum,July,N/A,Momentum Health4Me,,,,
311,Van Zyl Staal,Parent,Van Zyl Staal,A,Bethlehem,Freestate,George Herman,Tanya Smit,N/A,N/A,Ben Nel,Rayno v V / Ben Nel ,01/05/2019,"niel@vanzylstaal.co.za , ora@rustfonteinlodge.co.za",N/A,N/A,,,Approved,Old Mutual,July,Old Mutual,July,N/A,N/A,,Yes,,
312,Vastratech,Parent,Vastratech,B,Midrand,Gauteng,Natasha le Roux,Rene Koekemoer,N/A,N/A,Hannette Hope,Johan vd M / Hannette Hope,01/10/2018,shanec@vastratech.com,N/A,N/A,(082) 802 0035,,Approved / Unapproved,Liberty,July,Liberty,July,N/A,N/A,n/a,,,
313,Vic Bay,Parent,Vic Bay,C,Cape Town,Western Cape,Douw Smit,Rene Koekemoer,N/A,N/A,Michael Jonker,Michael Jonker,01/08/2018,malcolm@vicbay-wp.co.za,N/A,N/A,,,Unapproved,Keyrisk,August,N/A,N/A,N/A,N/A,,,,
313,Vic Bay Eastern Cape,Branch,Vic Bay Eastern Cape,C,Port Elizabeth,Eastern Cape,Liesl Nienaber,Rene Koekemoer,N/A,N/A,Michael Jonker,Michael Jonker,01/08/2018,N/A,N/A,N/A,,,Unapproved,Keyrisk,August,N/A,N/A,N/A,N/A,,,,
314,WBHS,,,,,,,,,,,,,,,,,,,,,,,,,,,,
314,WBJS,,,,,,,,,,,,,,,,,,,,,,,,,,,,
315,Webhelp - Various,Branch,Webhelp,CCC,Johannesburg,Gauteng,Jenny Nienaber,Tanya Smit,Benice Fourie,N/A,Madeleen van den Berg,Sam van Zyl,N/A,"kevin.dallende@za.webhelp.com 
riedwaan.slamdien@za.webhelp.com
Ingrid.arendse@webhelp.com
Cailin.daula@webhelp.com
Baron.dedricks@webhelp.com
Mpho.matabane@webhelp.com
mandy.prinsloo@sellbytel.com ",N/A,N/A,(087) 285-4360,,Unapproved,Momentum,July,N/A,N/A,Discovery Health,Momentum Health4Me,,,,
315,Webhelp/Serco/ DLG Cape Town,Parent,Webhelp/Serco/DLG,A,Cape Town,Western Cape,Douw Smit,Tanya Smit,Benice Fourie,N/A,Bennie van der Merwe,Douw Smit,N/A,N/A,N/A,N/A,(087) 285-4360,,Unapproved,Discovery,March,Alex Forbes,December,Discovery Health,Momentum Health4Me,,,,
316,Websurf,,,,,,,,,,,,,speedy@websurf.co.za,N/A,N/A,,,N/A,N/A,N/A,N/A,N/A,N/A,N/A,,,,
317,Weighcomm,Parent,Weighcomm,A,Johannesburg,Gauteng,George Herman,Shaneley Alberts,Benice Fourie,Lizaan Jacobs,Madeleen van den Berg,Johan vd M,01/03/2013,N/A,N/A,stephen.fernandes@weighcomm.co.za,(011) 704-1720,"unit 97 Block 9A
Northgate Office Park
18 Aureole Avenue
Randburg",Approved,Momentum,July,Momentum,July,Discovery Health,Momentum Health4Me,,Yes,,
317,Weighcomm Boksburg,Branch,Weighcomm,A,Johannesburg,Gauteng,George Herman,Shaneley Alberts,Benice Fourie,Lizaan Jacobs,Madeleen van den Berg,Johan vd M,N/A,N/A,N/A,stephen.fernandes@weighcomm.co.za,(011) 704-1720,"unit 97 Block 9A
Northgate Office Park
18 Aureole Avenue
Randburg",Approved,Momentum,July,Momentum,July,Discovery Health,Momentum Health4Me,,,,
317,Weighcomm Cape Town,Branch,Weighcomm ,C,Cape Town,Western Cape,Douw Smit,Shaneley Alberts,Benice Fourie,Lizaan Jacobs,Madeleen van den Berg,Douw Smit,N/A,Lorraine@weighcomm.co.za,N/A,stephen.fernandes@weighcomm.co.za,(011) 704-1720,"unit 97 Block 9A
Northgate Office Park
18 Aureole Avenue
Randburg",Approved,Momentum,July,Momentum,July,Discovery Health,Momentum Health4Me,,Head office,,
317,Weighcomm Durban,Branch,Weighcomm,C,Durban,Kwazulu Natal,Natasha le Roux,Shaneley Alberts,Benice Fourie,Lizaan Jacobs,Madeleen van den Berg,Johan vd Mescht,N/A,"Riaan Pitgieter, riaan@weighcomm.co.za, 083 373 3685",N/A,stephen.fernandes@weighcomm.co.za,(011) 704-1720,"unit 97 Block 9A
Northgate Office Park
18 Aureole Avenue
Randburg",Approved,Momentum,July,Momentum,July,Discovery Health,Momentum Health4Me,,,,
317,Weighcomm Johannesburg,Branch,Weighcomm,A,Johannesburg,Gauteng,George Herman,Shaneley Alberts,Benice Fourie,Lizaan Jacobs,Madeleen van den Berg,Johan vd M,N/A, kate@weighcomm.co.za,N/A,stephen.fernandes@weighcomm.co.za,(011) 704-1720,"unit 97 Block 9A
Northgate Office Park
18 Aureole Avenue
Randburg",Approved,Momentum,July,Momentum,July,Discovery Health,Momentum Health4Me,,,,
318,We Find Talent,Parent,We Find Talent,B,Johannesburg,Gauteng,George Herman,N/A,N/A,Lizaan Jacobs,N/A,N/A,N/A,N/A,N/A,N/A,(012) 362-2360,,N/A,N/A,N/A,N/A,N/A,N/A,Momentum Health4Me,,,14 Feb 2022,
320,Western Cape Dental Lab,Parent,Western Cape Dental Lab,C,Rustenburg,North West,Nadine Lewis,Nadine Lewis,N/A,N/A,Brenda Potgieter,Nadine,N/A,N/A,N/A,,,,N/A,N/A,N/A,N/A,N/A,N/A,N/A,,,,
336,Willa Krause Group,Parent,Willa Krause Group,C,Pretoria,Gauteng,Natasha le Roux,Shaneley Alberts,N/A,N/A,Schalk Oberholzer,Rayno v V / Stian de Witt,01/06/2017,Gesie@krause.co.za,N/A,N/A,,,,Sanlam,April,Sanlam,April,N/A,N/A,,,,
337,Wimpy Mall of Africa & Woodmead,,,,,,,,,,,,,omavro50@gmail.com,,,,,,,,,,,,,,,
338,Windsor (Chemstof Mining),Parent,Windsor (Chemstof Mining),B,Rustenburg,North West,Nadine Lewis,Nadine Lewis,Tracey Ellery,N/A,Brenda Potgieter,Nadine,N/A,N/A,N/A,N/A,N/A,N/A,N/A,N/A,November,N/A,N/A,Bonitas,N/A,,N/A,,
339,ADM Nutrition Sout Africa (Wisium),Parent,Wisium,B,Johannesburg,Gauteng,Natasha le Roux,Tanya van Zyl,Benice Fourie,N/A,Tiaan de Jager,Rayno v V / Tiaan de Jager,01/10/2018,fleroux@za.wisium.com,N/A,N/A,(011) 467 5915,"Little Fourways Office Park
Block B - First Floor 
Cnr Leslie Avenue & William Nicol Drive
Fourways
Sandton",Approved,Discovery,December,Alex Forbes,December,N/A,N/A,,,,
340,Wispernet,,,,,,,,,,,,,elsworthy.sb@wispernet.co.za,,,084 763 4468,,,,,,,,,,,,
341,WMF - Willaims Maree Financial Advisors,Parent,WMF - Willaims Maree Financial Advisors,B,Pretoria,Gauteng,George Herman,Chantal Broeke,N/A,N/A,Tella Harris,Rayno v V / Tella Harris,01/08/2018,N/A,N/A,N/A,,,Approved,Discovery,March,Discovery,August,N/A,N/A,,N/A,,
342,WMF - Willaims Maree Financial Advisors Bethlehem,Branch,WMF - Willaims Maree Financial Advisors,B,Bethlehem,Freestate,George Herman,Chantal Broeke,N/A,N/A,Tella Harris,Rayno v V / Tella Harris,N/A,Hettie - hettie@wmf.co.za,N/A,N/A,,,Approved,Discovery,March,Discovery,August,N/A,N/A,n/a,,,
343,WMF - Willaims Maree Financial Advisors Pretoria,Branch,WMF - Willaims Maree Financial Advisors,B,Pretoria,Gauteng,George Herman,Chantal Broeke,N/A,N/A,Tella Harris,Patric v N,N/A,monja@wmf.co.za,N/A,N/A,,,Approved,Discovery,March,Discovery,August,N/A,N/A,n/a,,,
344,Wolmaransstad Slaghuis,Parent,Wolmaransstad Slaghuis,C,Rustenburg,North West,Nadine Lewis,Nadine Lewis,N/A,N/A,Brenda Potgieter,Nadine,N/A,N/A,N/A,,,,N/A,N/A,N/A,N/A,N/A,N/A,N/A,,,,
345,Woodcreations,Parent,Woodcreations,C,Johannesburg,Gauteng,Direct,N/A,Benice Fourie,N/A,Madeleen van den Berg,Sam van Zyl,N/A,Lynn - lgarbutt@woodcreations.co.za,N/A,N/A,,,N/A,N/A,N/A,N/A,N/A,Discovery Health,N/A,,Refresher on renewal - alone,,
346,Workhorse Bronze Foundary,Parent,Workhorse Bronze Foundary,A,Johannesburg,Gauteng,George Herman,Rene Koekemoer,N/A,N/A,Stian de Witt,Rayno v V / Stian de Witt,01/06/2016,N/A,Rina Noto <rina@workhorsebronzefoundry.co.za> hennie@workhorsebronzefoundry.co.za,N/A,(011) 334 0657,,,Liberty,June,Liberty,June,N/A,N/A,,Small feedback,,
347,Wynberg Girls High,Parent,Wynberg Skole,B,Cape Town,Western Cape,Douw Smit,Tanya Smit,N/A,N/A,Douw Smit,Douw Smit,01/11/2017,hmills@wynghs.co.za,N/A,N/A,,"7 Fagan Street
Somerset West",Unapproved,Liberty,December,Alex Forbes,November,N/A,N/A,,,,
348,Wynberg Boys High,Parent,Wynberg Skole,A,Cape Town,Western Cape,Douw Smit,Tanya Smit,N/A,Lizaan Jacobs,Douw Smit,Douw Smit,01/11/2017,csmith@wbhs.org.za,sqabaka@wbhs.org.za,cadams@wbhs.org.za,(021) 797-4247,"7 Fagan Street 
Somerset West",Unapproved,AF LIfe,June,Alex Forbes,November,N/A,Momentum Health4Me,Yes,,,
349,Wynberg Boys Junior,Parent,Wynberg Skole,A,Cape Town,Western Cape,Douw Smit,Tanya Smit,Benice Fourie,Lizaan Jacobs,Douw Smit,Douw Smit,01/04/2018,btheocharis@wbjs.org.za,N/A,N/A,(021) 762-5707,"7 Fagan Street
Somerset West",Unapproved,AF LIfe,July,Alex Forbes,November,Discovery Health,Momentum Health4Me,Yes,,,
,Xfuels,,Xfuels,,,,,Adri Janse van Vuuren,,,,,,,,admin@xfuels.co.za,"015 065 0555
066 033 462",,,,,,,,,,,,
351,Yes Domestic,Parent,Yes Domestic,C,Johannesburg,Gauteng,Direct,N/A,N/A,Lizaan Jacobs,N/A,N/A,N/A,admin@yesdomestic.co.za,N/A,N/A,(079) 697-4832,,N/A,N/A,N/A,N/A,N/A,N/A,Momentum Health4Me,,,,
352,Zandspruit (Property Projects Hoedspruit),Parent,Zandspruit (Property Projects Hoedspruit),B,Hoedspruit,Mpumalanga,George Herman,Shaneley Alberts,N/A,N/A,Madeleen van den Berg,Gerrit Smith,22/04/2015,roelien.britz@gmail.com,N/A,roelien.britz@gmail.com,086 000 9263,"Die Ryshuis
R527
Hoedspruit",,Momentum,July,Momentum,July,N/A,N/A,,N/A,,
353,Ziphi Nkomo1 - Spar South Rand,Parent,Spar,B,Johannesburg,Gauteng,Amanda White,Tanya van Zyl,N/A,N/A,Madeleen van den Berg,Amanda White,N/A,sonja@singamandla.co.za,sonja@singamandla.co.za,sonja@singamandla.co.za,071 420 5340,"Unit 1, Leogem Commercial Park, Halfway House",Approved,Momentum,July,Momentum,July,N/A,N/A,,,,
354,Zwembesi Farm,Parent,Zwembesi Farm,B,Port Elizabeth,Eastern Cape,Liesl Nienaber,Tanya van Zyl,N/A,Priscilla Abrahams,Liesl Nienaber,Liesl Nienaber,01/04/2022,john@knysnaoysters.co.za,simon@knysnaoysters.co.za,N/A,(082) 576-2667 / (079) 694-6438,"Office Block 1 West Wing
Ascot Office Park
Conyngham
Greenarcer
Port Elizabeth",,Momentum,July,Momentum,July,N/A,Momentum Health4Me,,,,